A,4.609946,3.326422,7.087787,7.152978,5.321806,4.426861,2.930110,1.350873,-0.634880,-1.222447,-1.435204,-2.617424,-4.753838,-2.361422,-3.332168
A,4.617108,5.195201,8.050266,5.296339,4.694352,3.835940,1.997127,0.824129,-1.525617,-1.682762,-1.429824,-3.799205,-3.553895,-3.336916,-4.310377
A,3.326422,7.087787,7.152978,5.321806,4.426861,2.930110,1.350873,-0.634880,-1.222447,-1.435204,-2.617424,-4.753838,-2.361422,-3.332168,-5.098969
A,5.195201,8.050266,5.296339,4.694352,3.835940,1.997127,0.824129,-1.525617,-1.682762,-1.429824,-3.799205,-3.553895,-3.336916,-4.310377,-5.098919
A,4.267309,3.367765,6.209183,4.985569,3.149377,1.590607,2.256672,1.331007,0.395801,0.149034,-1.028552,-1.938388,-1.435204,-1.422734,-2.386924
A,3.349635,4.311191,5.888378,4.070316,2.219284,1.598935,2.271392,1.343906,0.136460,-0.788812,-1.967733,-1.682762,-1.429824,-1.417226,-3.569193
A,3.367765,6.209183,4.985569,3.149377,1.590607,2.256672,1.331007,0.395801,0.149034,-1.028552,-1.938388,-1.435204,-1.422734,-2.386924,-4.540383
A,4.311191,5.888378,4.070316,2.219284,1.598935,2.271392,1.343906,0.136460,-0.788812,-1.967733,-1.682762,-1.429824,-1.417226,-3.569193,-4.526222
A,6.209183,4.985569,3.149377,1.590607,2.256672,1.331007,0.395801,0.149034,-1.028552,-1.938388,-1.435204,-1.422734,-2.386924,-4.540383,-4.322581
A,5.888378,4.070316,2.219284,1.598935,2.271392,1.343906,0.136460,-0.788812,-1.967733,-1.682762,-1.429824,-1.417226,-3.569193,-4.526222,-4.118857
A,4.985569,3.149377,1.590607,2.256672,1.331007,0.395801,0.149034,-1.028552,-1.938388,-1.435204,-1.422734,-2.386924,-4.540383,-4.322581,-3.335768
A,4.070316,2.219284,1.598935,2.271392,1.343906,0.136460,-0.788812,-1.967733,-1.682762,-1.429824,-1.417226,-3.569193,-4.526222,-4.118857,-2.157536
A,4.264972,4.299728,5.271428,3.424602,1.556387,1.567284,1.577967,3.187141,1.413145,-1.867351,-2.189710,-1.660833,-2.818421,-4.327212,-3.341577
A,3.353672,6.189657,4.355671,2.495898,1.565079,1.575833,2.537331,2.912948,-0.724432,-1.542766,-1.923622,-2.843781,-3.567106,-3.344955,-3.139521
A,4.299728,5.271428,3.424602,1.556387,1.567284,1.577967,3.187141,1.413145,-1.867351,-2.189710,-1.660833,-2.818421,-4.327212,-3.341577,-3.138536
A,6.189657,4.355671,2.495898,1.565079,1.575833,2.537331,2.912948,-0.724432,-1.542766,-1.923622,-2.843781,-3.567106,-3.344955,-3.139521,-3.138877
A,5.271428,3.424602,1.556387,1.567284,1.577967,3.187141,1.413145,-1.867351,-2.189710,-1.660833,-2.818421,-4.327212,-3.341577,-3.138536,-4.118525
A,4.355671,2.495898,1.565079,1.575833,2.537331,2.912948,-0.724432,-1.542766,-1.923622,-2.843781,-3.567106,-3.344955,-3.139521,-3.138877,-5.099011
A,3.424602,1.556387,1.567284,1.577967,3.187141,1.413145,-1.867351,-2.189710,-1.660833,-2.818421,-4.327212,-3.341577,-3.138536,-4.118525,-5.099020
A,2.495898,1.565079,1.575833,2.537331,2.912948,-0.724432,-1.542766,-1.923622,-2.843781,-3.567106,-3.344955,-3.139521,-3.138877,-5.099011,-5.099011
A,8.335388,6.161803,5.274625,5.314005,2.509170,2.524726,1.588438,1.298068,1.614880,0.380954,1.090138,-1.051047,-2.198877,-1.666604,-1.419490
A,7.432729,5.247428,6.229776,3.440452,1.567284,2.527277,1.284878,1.606835,1.327155,0.115063,0.156070,-1.020371,-1.931092,-1.655686,-2.602560
A,6.161803,5.274625,5.314005,2.509170,2.524726,1.588438,1.298068,1.614880,0.380954,1.090138,-1.051047,-2.198877,-1.666604,-1.419490,-2.594531
A,5.247428,6.229776,3.440452,1.567284,2.527277,1.284878,1.606835,1.327155,0.115063,0.156070,-1.020371,-1.931092,-1.655686,-2.602560,-2.575923
A,5.274625,5.314005,2.509170,2.524726,1.588438,1.298068,1.614880,0.380954,1.090138,-1.051047,-2.198877,-1.666604,-1.419490,-2.594531,-2.367746
A,6.229776,3.440452,1.567284,2.527277,1.284878,1.606835,1.327155,0.115063,0.156070,-1.020371,-1.931092,-1.655686,-2.602560,-2.575923,-2.159492
A,5.314005,2.509170,2.524726,1.588438,1.298068,1.614880,0.380954,1.090138,-1.051047,-2.198877,-1.666604,-1.419490,-2.594531,-2.367746,-2.357358
A,3.440452,1.567284,2.527277,1.284878,1.606835,1.327155,0.115063,0.156070,-1.020371,-1.931092,-1.655686,-2.602560,-2.575923,-2.159492,-2.158025
A,2.509170,2.524726,1.588438,1.298068,1.614880,0.380954,1.090138,-1.051047,-2.198877,-1.666604,-1.419490,-2.594531,-2.367746,-2.357358,-2.156013
A,1.567284,2.527277,1.284878,1.606835,1.327155,0.115063,0.156070,-1.020371,-1.931092,-1.655686,-2.602560,-2.575923,-2.159492,-2.158025,-3.137518
A,2.524726,1.588438,1.298068,1.614880,0.380954,1.090138,-1.051047,-2.198877,-1.666604,-1.419490,-2.594531,-2.367746,-2.357358,-2.156013,-3.136131
A,2.527277,1.284878,1.606835,1.327155,0.115063,0.156070,-1.020371,-1.931092,-1.655686,-2.602560,-2.575923,-2.159492,-2.158025,-3.137518,-3.136819
A,1.588438,1.298068,1.614880,0.380954,1.090138,-1.051047,-2.198877,-1.666604,-1.419490,-2.594531,-2.367746,-2.357358,-2.156013,-3.136131,-4.117250
A,1.284878,1.606835,1.327155,0.115063,0.156070,-1.020371,-1.931092,-1.655686,-2.602560,-2.575923,-2.159492,-2.158025,-3.137518,-3.136819,-3.136091
A,1.298068,1.614880,0.380954,1.090138,-1.051047,-2.198877,-1.666604,-1.419490,-2.594531,-2.367746,-2.357358,-2.156013,-3.136131,-4.117250,-4.117028
A,10.495525,15.301011,11.442988,6.261986,3.782567,1.575833,1.586374,1.294879,0.364228,1.343906,-0.130330,-0.548983,-1.905232,-2.612780,-3.565034
A,13.336493,14.491356,9.642709,4.722454,2.519550,1.584291,1.594692,1.308032,0.375679,1.082250,-0.347116,-2.185042,-1.878962,-2.594531,-3.347065
A,15.301011,11.442988,6.261986,3.782567,1.575833,1.586374,1.294879,0.364228,1.343906,-0.130330,-0.548983,-1.905232,-2.612780,-3.565034,-3.343766
A,14.491356,9.642709,4.722454,2.519550,1.584291,1.594692,1.308032,0.375679,1.082250,-0.347116,-2.185042,-1.878962,-2.594531,-3.347065,-3.140140
A,11.442988,6.261986,3.782567,1.575833,1.586374,1.294879,0.364228,1.343906,-0.130330,-0.548983,-1.905232,-2.612780,-3.565034,-3.343766,-3.139188
A,9.642709,4.722454,2.519550,1.584291,1.594692,1.308032,0.375679,1.082250,-0.347116,-2.185042,-1.878962,-2.594531,-3.347065,-3.140140,-3.139521
A,6.261986,3.782567,1.575833,1.586374,1.294879,0.364228,1.343906,-0.130330,-0.548983,-1.905232,-2.612780,-3.565034,-3.343766,-3.139188,-2.158041
A,4.722454,2.519550,1.584291,1.594692,1.308032,0.375679,1.082250,-0.347116,-2.185042,-1.878962,-2.594531,-3.347065,-3.140140,-3.139521,-2.353379
A,3.782567,1.575833,1.586374,1.294879,0.364228,1.343906,-0.130330,-0.548983,-1.905232,-2.612780,-3.565034,-3.343766,-3.139188,-2.158041,-3.137511
A,2.519550,1.584291,1.594692,1.308032,0.375679,1.082250,-0.347116,-2.185042,-1.878962,-2.594531,-3.347065,-3.140140,-3.139521,-2.353379,-3.136091
A,1.575833,1.586374,1.294879,0.364228,1.343906,-0.130330,-0.548983,-1.905232,-2.612780,-3.565034,-3.343766,-3.139188,-2.158041,-3.137511,-3.327173
A,1.584291,1.594692,1.308032,0.375679,1.082250,-0.347116,-2.185042,-1.878962,-2.594531,-3.347065,-3.140140,-3.139521,-2.353379,-3.136091,-3.135330
A,1.586374,1.294879,0.364228,1.343906,-0.130330,-0.548983,-1.905232,-2.612780,-3.565034,-3.343766,-3.139188,-2.158041,-3.137511,-3.327173,-10.007592
A,2.777633,4.276830,8.059387,4.359607,3.119186,2.524726,1.588438,1.298068,1.324129,0.389650,0.409592,0.168576,-0.759514,-1.696385,-1.438847
A,2.411377,6.167501,6.219594,4.378002,3.459034,1.580081,1.284878,1.311152,0.378327,0.398361,0.418296,0.181107,-0.747938,-1.685647,-1.431897
A,4.276830,8.059387,4.359607,3.119186,2.524726,1.588438,1.298068,1.324129,0.389650,0.409592,0.168576,-0.759514,-1.696385,-1.438847,-1.426536
A,6.167501,6.219594,4.378002,3.459034,1.580081,1.284878,1.311152,0.378327,0.398361,0.418296,0.181107,-0.747938,-1.685647,-1.431897,-2.612780
A,8.059387,4.359607,3.119186,2.524726,1.588438,1.298068,1.324129,0.389650,0.409592,0.168576,-0.759514,-1.696385,-1.438847,-1.426536,-3.793201
A,6.219594,4.378002,3.459034,1.580081,1.284878,1.311152,0.378327,0.398361,0.418296,0.181107,-0.747938,-1.685647,-1.431897,-2.612780,-4.748307
A,4.359607,3.119186,2.524726,1.588438,1.298068,1.324129,0.389650,0.409592,0.168576,-0.759514,-1.696385,-1.438847,-1.426536,-3.793201,-3.549780
A,4.378002,3.459034,1.580081,1.284878,1.311152,0.378327,0.398361,0.418296,0.181107,-0.747938,-1.685647,-1.431897,-2.612780,-4.748307,-3.339200
A,3.119186,2.524726,1.588438,1.298068,1.324129,0.389650,0.409592,0.168576,-0.759514,-1.696385,-1.438847,-1.426536,-3.793201,-3.549780,-3.334547
A,3.459034,1.580081,1.284878,1.311152,0.378327,0.398361,0.418296,0.181107,-0.747938,-1.685647,-1.431897,-2.612780,-4.748307,-3.339200,-2.157022
A,2.524726,1.588438,1.298068,1.324129,0.389650,0.409592,0.168576,-0.759514,-1.696385,-1.438847,-1.426536,-3.793201,-3.549780,-3.334547,-3.136475
A,1.580081,1.284878,1.311152,0.378327,0.398361,0.418296,0.181107,-0.747938,-1.685647,-1.431897,-2.612780,-4.748307,-3.339200,-2.157022,-3.136819
A,1.588438,1.298068,1.324129,0.389650,0.409592,0.168576,-0.759514,-1.696385,-1.438847,-1.426536,-3.793201,-3.549780,-3.334547,-3.136475,-3.135740
A,1.284878,1.311152,0.378327,0.398361,0.418296,0.181107,-0.747938,-1.685647,-1.431897,-2.612780,-4.748307,-3.339200,-2.157022,-3.136819,-4.117623
A,1.298068,1.324129,0.389650,0.409592,0.168576,-0.759514,-1.696385,-1.438847,-1.426536,-3.793201,-3.549780,-3.334547,-3.136475,-3.135740,-4.117028
A,1.311152,0.378327,0.398361,0.418296,0.181107,-0.747938,-1.685647,-1.431897,-2.612780,-4.748307,-3.339200,-2.157022,-3.136819,-4.117623,-3.135689
A,1.324129,0.389650,0.409592,0.168576,-0.759514,-1.696385,-1.438847,-1.426536,-3.793201,-3.549780,-3.334547,-3.136475,-3.135740,-4.117028,-3.134536
A,4.969210,11.435266,17.199581,8.065891,4.363501,2.501398,2.200240,3.187141,1.695199,0.821649,-1.530496,-1.916423,-2.837317,-3.562976,-3.342586
A,6.820077,16.134609,13.606340,6.229776,2.495898,2.511838,3.166405,2.912948,1.059014,-0.638969,-1.227171,-2.862100,-3.790231,-3.347065,-3.339200
A,11.435266,17.199581,8.065891,4.363501,2.501398,2.200240,3.187141,1.695199,0.821649,-1.530496,-1.916423,-2.837317,-3.562976,-3.342586,-4.315549
A,16.134609,13.606340,6.229776,2.495898,2.511838,3.166405,2.912948,1.059014,-0.638969,-1.227171,-2.862100,-3.790231,-3.347065,-3.339200,-4.118523
A,17.199581,8.065891,4.363501,2.501398,2.200240,3.187141,1.695199,0.821649,-1.530496,-1.916423,-2.837317,-3.562976,-3.342586,-4.315549,-4.118000
A,13.606340,6.229776,2.495898,2.511838,3.166405,2.912948,1.059014,-0.638969,-1.227171,-2.862100,-3.790231,-3.347065,-3.339200,-4.118523,-4.118351
A,8.065891,4.363501,2.501398,2.200240,3.187141,1.695199,0.821649,-1.530496,-1.916423,-2.837317,-3.562976,-3.342586,-4.315549,-4.118000,-4.117807
A,6.229776,2.495898,2.511838,3.166405,2.912948,1.059014,-0.638969,-1.227171,-2.862100,-3.790231,-3.347065,-3.339200,-4.118523,-4.118351,-4.118170
A,4.363501,2.501398,2.200240,3.187141,1.695199,0.821649,-1.530496,-1.916423,-2.837317,-3.562976,-3.342586,-4.315549,-4.118000,-4.117807,-7.061227
A,2.495898,2.511838,3.166405,2.912948,1.059014,-0.638969,-1.227171,-2.862100,-3.790231,-3.347065,-3.339200,-4.118523,-4.118351,-4.118170,-10.001439
A,9.722603,12.649628,7.154719,3.105474,3.464968,1.584291,1.594692,1.308032,1.620985,0.799242,-0.836384,-1.916423,-1.424910,-2.812089,-3.345889
A,11.638942,9.913528,4.020704,3.449625,2.207823,1.592659,1.602922,1.612980,1.337000,0.296113,-1.484193,-1.664025,-2.610483,-3.562976,-3.342586
A,12.649628,7.154719,3.105474,3.464968,1.584291,1.594692,1.308032,1.620985,0.799242,-0.836384,-1.916423,-1.424910,-2.812089,-3.345889,-3.338022
A,9.913528,4.020704,3.449625,2.207823,1.592659,1.602922,1.612980,1.337000,0.296113,-1.484193,-1.664025,-2.610483,-3.562976,-3.342586,-3.138854
A,7.154719,3.105474,3.464968,1.584291,1.594692,1.308032,1.620985,0.799242,-0.836384,-1.916423,-1.424910,-2.812089,-3.345889,-3.338022,-3.137518
A,4.020704,3.449625,2.207823,1.592659,1.602922,1.612980,1.337000,0.296113,-1.484193,-1.664025,-2.610483,-3.562976,-3.342586,-3.138854,-2.157530
A,3.105474,3.464968,1.584291,1.594692,1.308032,1.620985,0.799242,-0.836384,-1.916423,-1.424910,-2.812089,-3.345889,-3.338022,-3.137518,-3.136819
A,3.449625,2.207823,1.592659,1.602922,1.612980,1.337000,0.296113,-1.484193,-1.664025,-2.610483,-3.562976,-3.342586,-3.138854,-2.157530,-3.137165
A,3.464968,1.584291,1.594692,1.308032,1.620985,0.799242,-0.836384,-1.916423,-1.424910,-2.812089,-3.345889,-3.338022,-3.137518,-3.136819,-3.136091
A,2.207823,1.592659,1.602922,1.612980,1.337000,0.296113,-1.484193,-1.664025,-2.610483,-3.562976,-3.342586,-3.138854,-2.157530,-3.137165,-3.136442
A,1.584291,1.594692,1.308032,1.620985,0.799242,-0.836384,-1.916423,-1.424910,-2.812089,-3.345889,-3.338022,-3.137518,-3.136819,-3.136091,-5.098945
A,1.592659,1.602922,1.612980,1.337000,0.296113,-1.484193,-1.664025,-2.610483,-3.562976,-3.342586,-3.138854,-2.157530,-3.137165,-3.136442,-7.061559
A,7.619296,10.476333,14.343786,9.880457,4.337935,2.149603,1.560882,3.488965,2.366097,-0.125692,-1.024446,-1.699067,-2.868689,-4.560719,-3.356253
A,7.686193,13.311271,13.529135,7.129617,3.418657,1.552204,2.821276,3.261325,0.799242,-1.055226,-0.993469,-2.650616,-3.819968,-3.359369,-3.351846
A,10.476333,14.343786,9.880457,4.337935,2.149603,1.560882,3.488965,2.366097,-0.125692,-1.024446,-1.699067,-2.868689,-4.560719,-3.356253,-3.142666
A,13.311271,13.529135,7.129617,3.418657,1.552204,2.821276,3.261325,0.799242,-1.055226,-0.993469,-2.650616,-3.819968,-3.359369,-3.351846,-3.141453
A,14.343786,9.880457,4.337935,2.149603,1.560882,3.488965,2.366097,-0.125692,-1.024446,-1.699067,-2.868689,-4.560719,-3.356253,-3.142666,-3.346424
A,13.529135,7.129617,3.418657,1.552204,2.821276,3.261325,0.799242,-1.055226,-0.993469,-2.650616,-3.819968,-3.359369,-3.351846,-3.141453,-3.140861
A,9.880457,4.337935,2.149603,1.560882,3.488965,2.366097,-0.125692,-1.024446,-1.699067,-2.868689,-4.560719,-3.356253,-3.142666,-3.346424,-4.119503
A,7.129617,3.418657,1.552204,2.821276,3.261325,0.799242,-1.055226,-0.993469,-2.650616,-3.819968,-3.359369,-3.351846,-3.141453,-3.140861,-5.098889
A,4.337935,2.149603,1.560882,3.488965,2.366097,-0.125692,-1.024446,-1.699067,-2.868689,-4.560719,-3.356253,-3.142666,-3.346424,-4.119503,-5.098944
A,3.418657,1.552204,2.821276,3.261325,0.799242,-1.055226,-0.993469,-2.650616,-3.819968,-3.359369,-3.351846,-3.141453,-3.140861,-5.098889,-5.098882
A,3.353407,3.378455,3.402415,2.482978,1.554472,1.565293,1.575903,1.278156,1.009846,-0.453806,-1.314646,-1.712526,-1.682762,-2.404179,-2.394637
A,3.361165,3.385787,2.129448,2.493607,1.563098,1.573779,1.584250,1.291313,-0.216806,-0.676444,-1.982313,-1.456067,-1.674460,-2.399445,-2.389755
A,3.378455,3.402415,2.482978,1.554472,1.565293,1.575903,1.278156,1.009846,-0.453806,-1.314646,-1.712526,-1.682762,-2.404179,-2.394637,-2.384798
A,3.385787,2.129448,2.493607,1.563098,1.573779,1.584250,1.291313,-0.216806,-0.676444,-1.982313,-1.456067,-1.674460,-2.399445,-2.389755,-2.379763
A,3.402415,2.482978,1.554472,1.565293,1.575903,1.278156,1.009846,-0.453806,-1.314646,-1.712526,-1.682762,-2.404179,-2.394637,-2.384798,-3.143831
A,2.129448,2.493607,1.563098,1.573779,1.584250,1.291313,-0.216806,-0.676444,-1.982313,-1.456067,-1.674460,-2.399445,-2.389755,-2.379763,-3.142666
A,2.482978,1.554472,1.565293,1.575903,1.278156,1.009846,-0.453806,-1.314646,-1.712526,-1.682762,-2.404179,-2.394637,-2.384798,-3.143831,-3.143312
A,2.493607,1.563098,1.573779,1.584250,1.291313,-0.216806,-0.676444,-1.982313,-1.456067,-1.674460,-2.399445,-2.389755,-2.379763,-3.142666,-3.142112
A,1.554472,1.565293,1.575903,1.278156,1.009846,-0.453806,-1.314646,-1.712526,-1.682762,-2.404179,-2.394637,-2.384798,-3.143831,-3.143312,-3.142771
A,1.563098,1.573779,1.584250,1.291313,-0.216806,-0.676444,-1.982313,-1.456067,-1.674460,-2.399445,-2.389755,-2.379763,-3.142666,-3.142112,-4.120227
A,3.335247,3.361616,3.737932,4.340746,2.485189,1.556387,1.567284,3.510327,2.389668,-0.621564,-1.709790,-1.680108,-3.819968,-5.732619,-3.342777
A,3.353672,3.733363,4.679344,3.411835,1.547603,1.558645,2.837721,3.573154,0.263959,-1.270877,-1.688295,-2.633030,-5.960988,-3.346150,-3.338113
A,3.361616,3.737932,4.340746,2.485189,1.556387,1.567284,3.510327,2.389668,-0.621564,-1.709790,-1.680108,-3.819968,-5.732619,-3.342777,-3.138877
A,3.733363,4.679344,3.411835,1.547603,1.558645,2.837721,3.573154,0.263959,-1.270877,-1.688295,-2.633030,-5.960988,-3.346150,-3.338113,-3.137511
A,3.737932,4.340746,2.485189,1.556387,1.567284,3.510327,2.389668,-0.621564,-1.709790,-1.680108,-3.819968,-5.732619,-3.342777,-3.138877,-4.313490
A,4.679344,3.411835,1.547603,1.558645,2.837721,3.573154,0.263959,-1.270877,-1.688295,-2.633030,-5.960988,-3.346150,-3.338113,-3.137511,-5.099011
A,4.340746,2.485189,1.556387,1.567284,3.510327,2.389668,-0.621564,-1.709790,-1.680108,-3.819968,-5.732619,-3.342777,-3.138877,-4.313490,-6.080194
A,3.411835,1.547603,1.558645,2.837721,3.573154,0.263959,-1.270877,-1.688295,-2.633030,-5.960988,-3.346150,-3.338113,-3.137511,-5.099011,-7.060537
A,2.485189,1.556387,1.567284,3.510327,2.389668,-0.621564,-1.709790,-1.680108,-3.819968,-5.732619,-3.342777,-3.138877,-4.313490,-6.080194,-11.760005
A,9.243337,8.376258,5.263486,7.190876,3.136178,2.534913,2.908677,1.739958,0.864233,-1.704435,-1.863955,-3.766076,-3.530045,-3.322659,-4.115844
A,9.271080,6.174243,7.168586,5.333897,3.470942,2.234462,2.649709,1.091986,-0.579695,-1.402028,-2.812089,-4.722417,-3.327477,-3.134343,-3.133550
A,8.376258,5.263486,7.190876,3.136178,2.534913,2.908677,1.739958,0.864233,-1.704435,-1.863955,-3.766076,-3.530045,-3.322659,-4.115844,-3.132364
A,6.174243,7.168586,5.333897,3.470942,2.234462,2.649709,1.091986,-0.579695,-1.402028,-2.812089,-4.722417,-3.327477,-3.134343,-3.133550,-3.132723
A,5.263486,7.190876,3.136178,2.534913,2.908677,1.739958,0.864233,-1.704435,-1.863955,-3.766076,-3.530045,-3.322659,-4.115844,-3.132364,-2.147772
A,7.168586,5.333897,3.470942,2.234462,2.649709,1.091986,-0.579695,-1.402028,-2.812089,-4.722417,-3.327477,-3.134343,-3.133550,-3.132723,-3.131860
A,4.341562,6.263325,7.260679,4.151314,2.572941,2.587222,1.364994,1.390625,0.196214,-0.229628,-1.098998,-1.788043,-2.531342,-2.327968,-3.302087
A,5.304642,7.240178,6.341948,3.515730,2.291362,1.638191,1.377865,1.147039,0.225002,-1.378324,-1.818581,-1.760345,-2.333469,-2.322384,-3.296936
A,6.263325,7.260679,4.151314,2.572941,2.587222,1.364994,1.390625,0.196214,-0.229628,-1.098998,-1.788043,-2.531342,-2.327968,-3.302087,-2.140487
A,7.240178,6.341948,3.515730,2.291362,1.638191,1.377865,1.147039,0.225002,-1.378324,-1.818581,-1.760345,-2.333469,-2.322384,-3.296936,-3.124472
A,7.260679,4.151314,2.572941,2.587222,1.364994,1.390625,0.196214,-0.229628,-1.098998,-1.788043,-2.531342,-2.327968,-3.302087,-2.140487,-4.110920
A,6.341948,3.515730,2.291362,1.638191,1.377865,1.147039,0.225002,-1.378324,-1.818581,-1.760345,-2.333469,-2.322384,-3.296936,-3.124472,-4.109973
A,4.151314,2.572941,2.587222,1.364994,1.390625,0.196214,-0.229628,-1.098998,-1.788043,-2.531342,-2.327968,-3.302087,-2.140487,-4.110920,-4.110460
A,3.515730,2.291362,1.638191,1.377865,1.147039,0.225002,-1.378324,-1.818581,-1.760345,-2.333469,-2.322384,-3.296936,-3.124472,-4.109973,-4.109473
A,3.333274,4.292729,2.803246,3.745299,2.472220,2.157865,2.512079,1.907274,1.009846,1.059014,0.143589,-0.782558,-1.471283,-1.699067,-1.669203
A,3.351549,3.731987,3.740971,2.466354,3.425341,2.177402,2.211679,2.245020,0.073998,-0.158300,0.168576,-0.510198,-1.464539,-1.688295,-2.854650
A,4.292729,2.803246,3.745299,2.472220,2.157865,2.512079,1.907274,1.009846,1.059014,0.143589,-0.782558,-1.471283,-1.699067,-1.669203,-3.806629
A,3.731987,3.740971,2.466354,3.425341,2.177402,2.211679,2.245020,0.073998,-0.158300,0.168576,-0.510198,-1.464539,-1.688295,-2.854650,-5.529543
A,2.803246,3.745299,2.472220,2.157865,2.512079,1.907274,1.009846,1.059014,0.143589,-0.782558,-1.471283,-1.699067,-1.669203,-3.806629,-5.309829
A,3.740971,2.466354,3.425341,2.177402,2.211679,2.245020,0.073998,-0.158300,0.168576,-0.510198,-1.464539,-1.688295,-2.854650,-5.529543,-4.330255
A,3.745299,2.472220,2.157865,2.512079,1.907274,1.009846,1.059014,0.143589,-0.782558,-1.471283,-1.699067,-1.669203,-3.806629,-5.309829,-4.327490
A,2.466354,3.425341,2.177402,2.211679,2.245020,0.073998,-0.158300,0.168576,-0.510198,-1.464539,-1.688295,-2.854650,-5.529543,-4.330255,-4.120332
A,2.472220,2.157865,2.512079,1.907274,1.009846,1.059014,0.143589,-0.782558,-1.471283,-1.699067,-1.669203,-3.806629,-5.309829,-4.327490,-4.119935
A,3.425341,2.177402,2.211679,2.245020,0.073998,-0.158300,0.168576,-0.510198,-1.464539,-1.688295,-2.854650,-5.529543,-4.330255,-4.120332,-3.141533
A,2.157865,2.512079,1.907274,1.009846,1.059014,0.143589,-0.782558,-1.471283,-1.699067,-1.669203,-3.806629,-5.309829,-4.327490,-4.119935,-3.140586
A,2.177402,2.211679,2.245020,0.073998,-0.158300,0.168576,-0.510198,-1.464539,-1.688295,-2.854650,-5.529543,-4.330255,-4.120332,-3.141533,-3.140929
A,2.512079,1.907274,1.009846,1.059014,0.143589,-0.782558,-1.471283,-1.699067,-1.669203,-3.806629,-5.309829,-4.327490,-4.119935,-3.140586,-5.098916
A,2.211679,2.245020,0.073998,-0.158300,0.168576,-0.510198,-1.464539,-1.688295,-2.854650,-5.529543,-4.330255,-4.120332,-3.141533,-3.140929,-7.056684
A,5.524941,4.248196,5.216392,4.321409,2.471415,2.488023,1.558645,3.481859,2.079511,-0.628196,-1.953092,-2.645460,-2.399445,-2.389755,-3.357469
A,4.233221,5.200669,5.244418,3.404871,1.542915,2.498662,3.145251,3.253437,0.256727,-2.245255,-1.693652,-2.637790,-2.394637,-3.573411,-3.142666
A,4.248196,5.216392,4.321409,2.471415,2.488023,1.558645,3.481859,2.079511,-0.628196,-1.953092,-2.645460,-2.399445,-2.389755,-3.357469,-4.328522
A,5.200669,5.244418,3.404871,1.542915,2.498662,3.145251,3.253437,0.256727,-2.245255,-1.693652,-2.637790,-2.394637,-3.573411,-3.142666,-3.142112
A,5.216392,4.321409,2.471415,2.488023,1.558645,3.481859,2.079511,-0.628196,-1.953092,-2.645460,-2.399445,-2.389755,-3.357469,-4.328522,-2.162122
A,5.244418,3.404871,1.542915,2.498662,3.145251,3.253437,0.256727,-2.245255,-1.693652,-2.637790,-2.394637,-3.573411,-3.142666,-3.142112,-3.141533
A,4.321409,2.471415,2.488023,1.558645,3.481859,2.079511,-0.628196,-1.953092,-2.645460,-2.399445,-2.389755,-3.357469,-4.328522,-2.162122,-3.140243
A,7.391036,6.138099,6.191608,3.415264,3.110796,1.571634,2.222936,1.301230,1.327155,0.115063,-1.070542,-1.731086,-1.701769,-1.671822,-1.641237
A,6.114132,6.169823,5.280665,3.431249,2.506791,2.207900,2.241441,0.360913,0.380954,-0.142016,-1.039861,-1.466275,-1.690964,-1.660833,-2.607144
A,6.138099,6.191608,3.415264,3.110796,1.571634,2.222936,1.301230,1.327155,0.115063,-1.070542,-1.731086,-1.701769,-1.671822,-1.641237,-3.358166
A,6.169823,5.280665,3.431249,2.506791,2.207900,2.241441,0.360913,0.380954,-0.142016,-1.039861,-1.466275,-1.690964,-1.660833,-2.607144,-4.331931
A,6.191608,3.415264,3.110796,1.571634,2.222936,1.301230,1.327155,0.115063,-1.070542,-1.731086,-1.701769,-1.671822,-1.641237,-3.358166,-4.329236
A,5.280665,3.431249,2.506791,2.207900,2.241441,0.360913,0.380954,-0.142016,-1.039861,-1.466275,-1.690964,-1.660833,-2.607144,-4.331931,-4.326463
A,3.415264,3.110796,1.571634,2.222936,1.301230,1.327155,0.115063,-1.070542,-1.731086,-1.701769,-1.671822,-1.641237,-3.358166,-4.329236,-4.323610
A,3.431249,2.506791,2.207900,2.241441,0.360913,0.380954,-0.142016,-1.039861,-1.466275,-1.690964,-1.660833,-2.607144,-4.331931,-4.326463,-4.320674
A,3.110796,1.571634,2.222936,1.301230,1.327155,0.115063,-1.070542,-1.731086,-1.701769,-1.671822,-1.641237,-3.358166,-4.329236,-4.323610,-5.298144
A,2.506791,2.207900,2.241441,0.360913,0.380954,-0.142016,-1.039861,-1.466275,-1.690964,-1.660833,-2.607144,-4.331931,-4.326463,-4.320674,-7.058720
A,1.571634,2.222936,1.301230,1.327155,0.115063,-1.070542,-1.731086,-1.701769,-1.671822,-1.641237,-3.358166,-4.329236,-4.323610,-5.298144,-8.039386
A,11.561445,9.856258,7.143168,4.985569,3.788594,2.552328,1.317999,0.384442,0.132853,0.174259,-0.997468,-1.680108,-2.625279,-3.576668,-2.165301
A,12.568994,6.173134,6.224713,4.681593,3.174848,1.304885,1.331007,0.120260,0.161634,-0.765611,-1.701769,-1.671822,-2.617424,-3.359369,-2.373249
A,9.856258,7.143168,4.985569,3.788594,2.552328,1.317999,0.384442,0.132853,0.174259,-0.997468,-1.680108,-2.625279,-3.576668,-2.165301,-2.368063
A,6.173134,6.224713,4.681593,3.174848,1.304885,1.331007,0.120260,0.161634,-0.765611,-1.701769,-1.671822,-2.617424,-3.359369,-2.373249,-3.342777
A,7.143168,4.985569,3.788594,2.552328,1.317999,0.384442,0.132853,0.174259,-0.997468,-1.680108,-2.625279,-3.576668,-2.165301,-2.368063,-3.338113
A,6.224713,4.681593,3.174848,1.304885,1.331007,0.120260,0.161634,-0.765611,-1.701769,-1.671822,-2.617424,-3.359369,-2.373249,-3.342777,-3.334560
A,4.985569,3.788594,2.552328,1.317999,0.384442,0.132853,0.174259,-0.997468,-1.680108,-2.625279,-3.576668,-2.165301,-2.368063,-3.338113,-4.118351
A,4.681593,3.174848,1.304885,1.331007,0.120260,0.161634,-0.765611,-1.701769,-1.671822,-2.617424,-3.359369,-2.373249,-3.342777,-3.334560,-4.117807
A,7.034551,6.166571,4.337935,3.425341,2.177402,1.575903,0.973756,0.358199,0.095154,-0.130330,-0.777230,-1.468024,-2.665385,-4.814090,-3.585202
A,6.135078,5.251112,3.070851,2.496358,2.512079,1.264894,0.991863,0.082644,0.123913,-0.800357,-1.733888,-1.462946,-3.862617,-3.599883,-3.364254
A,6.166571,4.337935,3.425341,2.177402,1.575903,0.973756,0.358199,0.095154,-0.130330,-0.777230,-1.468024,-2.665385,-4.814090,-3.585202,-3.144464
A,5.251112,3.070851,2.496358,2.512079,1.264894,0.991863,0.082644,0.123913,-0.800357,-1.733888,-1.462946,-3.862617,-3.599883,-3.364254,-4.334384
A,4.337935,3.425341,2.177402,1.575903,0.973756,0.358199,0.095154,-0.130330,-0.777230,-1.468024,-2.665385,-4.814090,-3.585202,-3.144464,-3.143958
A,3.070851,2.496358,2.512079,1.264894,0.991863,0.082644,0.123913,-0.800357,-1.733888,-1.462946,-3.862617,-3.599883,-3.364254,-4.334384,-3.143100
A,3.425341,2.177402,1.575903,0.973756,0.358199,0.095154,-0.130330,-0.777230,-1.468024,-2.665385,-4.814090,-3.585202,-3.144464,-3.143958,-4.120997
A,2.496358,2.512079,1.264894,0.991863,0.082644,0.123913,-0.800357,-1.733888,-1.462946,-3.862617,-3.599883,-3.364254,-4.334384,-3.143100,-5.098552
A,4.311191,3.403814,3.427233,2.503754,2.203959,3.191545,1.317999,0.384442,0.404559,-0.352655,-0.981853,-2.643060,-2.832773,-2.375570,-3.344955
A,3.396589,3.420415,2.498229,2.514271,3.170673,2.256672,1.331007,0.395801,0.149034,-1.275977,-1.690964,-2.857938,-2.599087,-3.349441,-3.341577
A,3.403814,3.427233,2.503754,2.203959,3.191545,1.317999,0.384442,0.404559,-0.352655,-0.981853,-2.643060,-2.832773,-2.375570,-3.344955,-3.336916
A,3.420415,2.498229,2.514271,3.170673,2.256672,1.331007,0.395801,0.149034,-1.275977,-1.690964,-2.857938,-2.599087,-3.349441,-3.341577,-3.138536
A,3.427233,2.503754,2.203959,3.191545,1.317999,0.384442,0.404559,-0.352655,-0.981853,-2.643060,-2.832773,-2.375570,-3.344955,-3.336916,-3.137165
A,2.498229,2.514271,3.170673,2.256672,1.331007,0.395801,0.149034,-1.275977,-1.690964,-2.857938,-2.599087,-3.349441,-3.341577,-3.138536,-3.330914
A,2.503754,2.203959,3.191545,1.317999,0.384442,0.404559,-0.352655,-0.981853,-2.643060,-2.832773,-2.375570,-3.344955,-3.336916,-3.137165,-3.136442
A,6.441719,6.476350,4.281512,7.127511,4.359607,3.119186,3.162207,2.615956,0.523517,-1.044020,-2.189710,-2.857938,-3.785609,-3.344955,-3.139521
A,6.456953,5.192520,6.173134,5.283909,4.378002,3.140912,2.881253,1.428770,-0.113908,-1.256549,-1.908796,-3.806629,-4.538489,-3.341577,-3.138536
A,6.476350,4.281512,7.127511,4.359607,3.119186,3.162207,2.615956,0.523517,-1.044020,-2.189710,-2.857938,-3.785609,-3.344955,-3.139521,-3.138877
A,5.192520,6.173134,5.283909,4.378002,3.140912,2.881253,1.428770,-0.113908,-1.256549,-1.908796,-3.806629,-4.538489,-3.341577,-3.138536,-3.137857
A,4.281512,7.127511,4.359607,3.119186,3.162207,2.615956,0.523517,-1.044020,-2.189710,-2.857938,-3.785609,-3.344955,-3.139521,-3.138877,-3.138204
A,6.173134,5.283909,4.378002,3.140912,2.881253,1.428770,-0.113908,-1.256549,-1.908796,-3.806629,-4.538489,-3.341577,-3.138536,-3.137857,-3.137148
A,7.127511,4.359607,3.119186,3.162207,2.615956,0.523517,-1.044020,-2.189710,-2.857938,-3.785609,-3.344955,-3.139521,-3.138877,-3.138204,-4.118350
A,6.458904,8.353146,8.052810,4.355671,1.551806,2.188487,2.223060,2.256672,1.046707,1.095925,-1.044020,-2.189710,-2.857938,-2.599087,-2.370478
A,7.401157,8.953879,6.219594,2.490287,2.506476,2.207823,2.241810,2.274849,0.107693,-0.113908,-2.226814,-1.912388,-2.617424,-2.590919,-2.162919
A,8.353146,8.052810,4.355671,1.551806,2.188487,2.223060,2.256672,1.046707,1.095925,-1.044020,-2.189710,-2.857938,-2.599087,-2.370478,-2.160998
A,8.953879,6.219594,2.490287,2.506476,2.207823,2.241810,2.274849,0.107693,-0.113908,-2.226814,-1.912388,-2.617424,-2.590919,-2.162919,-2.161505
A,8.052810,4.355671,1.551806,2.188487,2.223060,2.256672,1.046707,1.095925,-1.044020,-2.189710,-2.857938,-2.599087,-2.370478,-2.160998,-2.159541
A,6.219594,2.490287,2.506476,2.207823,2.241810,2.274849,0.107693,-0.113908,-2.226814,-1.912388,-2.617424,-2.590919,-2.162919,-2.161505,-2.160052
A,4.355671,1.551806,2.188487,2.223060,2.256672,1.046707,1.095925,-1.044020,-2.189710,-2.857938,-2.599087,-2.370478,-2.160998,-2.159541,-3.138536
A,2.490287,2.506476,2.207823,2.241810,2.274849,0.107693,-0.113908,-2.226814,-1.912388,-2.617424,-2.590919,-2.162919,-2.161505,-2.160052,-3.138877
A,1.551806,2.188487,2.223060,2.256672,1.046707,1.095925,-1.044020,-2.189710,-2.857938,-2.599087,-2.370478,-2.160998,-2.159541,-3.138536,-4.118525
A,4.250386,6.512258,4.669247,3.398897,3.704061,2.200240,2.539793,1.301230,1.041317,-0.142016,-1.290176,-1.699067,-1.440515,-2.402743,-3.799205
A,6.494764,5.590952,4.325607,3.079199,4.070867,2.529802,1.288109,1.023494,0.111393,-0.367377,-0.993469,-2.417957,-1.435204,-2.617424,-4.547280
A,6.512258,4.669247,3.398897,3.704061,2.200240,2.539793,1.301230,1.041317,-0.142016,-1.290176,-1.699067,-1.440515,-2.402743,-3.799205,-3.350639
A,5.590952,4.325607,3.079199,4.070867,2.529802,1.288109,1.023494,0.111393,-0.367377,-0.993469,-2.417957,-1.435204,-2.617424,-4.547280,-2.368063
A,4.669247,3.398897,3.704061,2.200240,2.539793,1.301230,1.041317,-0.142016,-1.290176,-1.699067,-1.440515,-2.402743,-3.799205,-3.350639,-2.162016
A,4.325607,3.079199,4.070867,2.529802,1.288109,1.023494,0.111393,-0.367377,-0.993469,-2.417957,-1.435204,-2.617424,-4.547280,-2.368063,-1.958399
A,3.398897,3.704061,2.200240,2.539793,1.301230,1.041317,-0.142016,-1.290176,-1.699067,-1.440515,-2.402743,-3.799205,-3.350639,-2.162016,-1.958034
A,3.079199,4.070867,2.529802,1.288109,1.023494,0.111393,-0.367377,-0.993469,-2.417957,-1.435204,-2.617424,-4.547280,-2.368063,-1.958399,-2.161082
A,3.704061,2.200240,2.539793,1.301230,1.041317,-0.142016,-1.290176,-1.699067,-1.440515,-2.402743,-3.799205,-3.350639,-2.162016,-1.958034,-2.161601
A,4.070867,2.529802,1.288109,1.023494,0.111393,-0.367377,-0.993469,-2.417957,-1.435204,-2.617424,-4.547280,-2.368063,-1.958399,-2.161082,-2.159592
A,6.965552,7.411537,10.257815,6.223261,5.001478,3.162205,3.204087,1.721191,1.376403,0.177697,-0.750934,-1.688295,-1.658250,-1.414002,-2.586394
A,6.462925,9.290935,8.067831,6.252266,4.084646,3.183359,2.935144,1.078257,0.424576,0.190299,-0.977909,-1.438847,-1.647248,-2.594531,-2.567580
A,7.411537,10.257815,6.223261,5.001478,3.162205,3.204087,1.721191,1.376403,0.177697,-0.750934,-1.688295,-1.658250,-1.414002,-2.586394,-2.362592
A,9.290935,8.067831,6.252266,4.084646,3.183359,2.935144,1.078257,0.424576,0.190299,-0.977909,-1.438847,-1.647248,-2.594531,-2.567580,-2.157525
A,10.257815,6.223261,5.001478,3.162205,3.204087,1.721191,1.376403,0.177697,-0.750934,-1.688295,-1.658250,-1.414002,-2.586394,-2.362592,-2.352044
A,8.067831,6.252266,4.084646,3.183359,2.935144,1.078257,0.424576,0.190299,-0.977909,-1.438847,-1.647248,-2.594531,-2.567580,-2.157525,-2.156013
A,6.223261,5.001478,3.162205,3.204087,1.721191,1.376403,0.177697,-0.750934,-1.688295,-1.658250,-1.414002,-2.586394,-2.362592,-2.352044,-2.153955
A,6.252266,4.084646,3.183359,2.935144,1.078257,0.424576,0.190299,-0.977909,-1.438847,-1.647248,-2.594531,-2.567580,-2.157525,-2.156013,-3.324978
A,5.001478,3.162205,3.204087,1.721191,1.376403,0.177697,-0.750934,-1.688295,-1.658250,-1.414002,-2.586394,-2.362592,-2.352044,-2.153955,-3.134691
A,4.084646,3.183359,2.935144,1.078257,0.424576,0.190299,-0.977909,-1.438847,-1.647248,-2.594531,-2.567580,-2.157525,-2.156013,-3.324978,-3.133550
A,3.162205,3.204087,1.721191,1.376403,0.177697,-0.750934,-1.688295,-1.658250,-1.414002,-2.586394,-2.362592,-2.352044,-2.153955,-3.134691,-3.317372
A,10.908860,8.259545,10.734522,7.111779,4.011366,3.119186,3.162207,1.952170,1.334016,0.398361,0.152566,-1.024446,-2.670305,-1.671822,-2.617424
A,9.125260,9.748588,9.868612,6.210840,3.097022,3.140912,2.881253,1.321077,0.387057,0.407086,-0.092929,-1.720463,-2.662930,-1.663435,-3.799205
A,8.259545,10.734522,7.111779,4.011366,3.119186,3.162207,1.952170,1.334016,0.398361,0.152566,-1.024446,-2.670305,-1.671822,-2.617424,-4.547280
A,9.748588,9.868612,6.210840,3.097022,3.140912,2.881253,1.321077,0.387057,0.407086,-0.092929,-1.720463,-2.662930,-1.663435,-3.799205,-3.350639
A,10.734522,7.111779,4.011366,3.119186,3.162207,1.952170,1.334016,0.398361,0.152566,-1.024446,-2.670305,-1.671822,-2.617424,-4.547280,-3.347354
A,9.868612,6.210840,3.097022,3.140912,2.881253,1.321077,0.387057,0.407086,-0.092929,-1.720463,-2.662930,-1.663435,-3.799205,-3.350639,-3.141124
A,7.111779,4.011366,3.119186,3.162207,1.952170,1.334016,0.398361,0.152566,-1.024446,-2.670305,-1.671822,-2.617424,-4.547280,-3.347354,-3.140190
A,6.210840,3.097022,3.140912,2.881253,1.321077,0.387057,0.407086,-0.092929,-1.720463,-2.662930,-1.663435,-3.799205,-3.350639,-3.141124,-3.340529
A,4.011366,3.119186,3.162207,1.952170,1.334016,0.398361,0.152566,-1.024446,-2.670305,-1.671822,-2.617424,-4.547280,-3.347354,-3.140190,-3.139559
A,3.097022,3.140912,2.881253,1.321077,0.387057,0.407086,-0.092929,-1.720463,-2.662930,-1.663435,-3.799205,-3.350639,-3.141124,-3.340529,-3.138204
A,3.119186,3.162207,1.952170,1.334016,0.398361,0.152566,-1.024446,-2.670305,-1.671822,-2.617424,-4.547280,-3.347354,-3.140190,-3.139559,-10.197971
A,3.140912,2.881253,1.321077,0.387057,0.407086,-0.092929,-1.720463,-2.662930,-1.663435,-3.799205,-3.350639,-3.141124,-3.340529,-3.138204,-17.830433
A,11.922976,11.113937,6.169823,4.340746,2.485189,2.501398,2.517097,2.569650,1.995834,0.821649,-1.035733,-1.945701,-4.061783,-5.739367,-4.325441
A,12.897998,8.000774,5.261986,4.359607,1.554107,2.511838,3.166405,2.622197,1.072605,-0.104787,-1.004960,-2.889786,-6.197507,-4.531476,-4.119325
A,11.113937,6.169823,4.340746,2.485189,2.501398,2.517097,2.569650,1.995834,0.821649,-1.035733,-1.945701,-4.061783,-5.739367,-4.325441,-4.319638
A,8.000774,5.261986,4.359607,1.554107,2.511838,3.166405,2.622197,1.072605,-0.104787,-1.004960,-2.889786,-6.197507,-4.531476,-4.119325,-4.316608
A,6.169823,4.340746,2.485189,2.501398,2.517097,2.569650,1.995834,0.821649,-1.035733,-1.945701,-4.061783,-5.739367,-4.325441,-4.319638,-8.038864
A,5.261986,4.359607,1.554107,2.511838,3.166405,2.622197,1.072605,-0.104787,-1.004960,-2.889786,-6.197507,-4.531476,-4.119325,-4.316608,-12.939206
A,4.340746,2.485189,2.501398,2.517097,2.569650,1.995834,0.821649,-1.035733,-1.945701,-4.061783,-5.739367,-4.325441,-4.319638,-8.038864,-14.114825
A,4.359607,1.554107,2.511838,3.166405,2.622197,1.072605,-0.104787,-1.004960,-2.889786,-6.197507,-4.531476,-4.119325,-4.316608,-12.939206,-10.970494
A,2.485189,2.501398,2.517097,2.569650,1.995834,0.821649,-1.035733,-1.945701,-4.061783,-5.739367,-4.325441,-4.319638,-8.038864,-14.114825,-7.823539
A,1.554107,2.511838,3.166405,2.622197,1.072605,-0.104787,-1.004960,-2.889786,-6.197507,-4.531476,-4.119325,-4.316608,-12.939206,-10.970494,-6.840020
A,8.270905,4.243260,4.279079,5.249296,4.348791,4.051711,3.468162,1.278156,0.349483,1.327155,0.115063,0.420749,-1.035733,-1.707074,-1.445760
A,5.533407,4.257905,4.292729,5.263617,4.027168,3.132516,2.532303,1.291313,0.360913,0.380954,1.090138,-0.794025,-1.974737,-1.452636,-1.440515
A,4.243260,4.279079,5.249296,4.348791,4.051711,3.468162,1.278156,0.349483,1.327155,0.115063,0.420749,-1.035733,-1.707074,-1.445760,-2.633030
A,4.257905,4.292729,5.263617,4.027168,3.132516,2.532303,1.291313,0.360913,0.380954,1.090138,-0.794025,-1.974737,-1.452636,-1.440515,-2.625279
A,4.279079,5.249296,4.348791,4.051711,3.468162,1.278156,0.349483,1.327155,0.115063,0.420749,-1.035733,-1.707074,-1.445760,-2.633030,-2.607144
A,4.292729,5.263617,4.027168,3.132516,2.532303,1.291313,0.360913,0.380954,1.090138,-0.794025,-1.974737,-1.452636,-1.440515,-2.625279,-2.386924
A,5.249296,4.348791,4.051711,3.468162,1.278156,0.349483,1.327155,0.115063,0.420749,-1.035733,-1.707074,-1.445760,-2.633030,-2.607144,-2.166630
A,5.263617,4.027168,3.132516,2.532303,1.291313,0.360913,0.380954,1.090138,-0.794025,-1.974737,-1.452636,-1.440515,-2.625279,-2.386924,-2.376958
A,4.348791,4.051711,3.468162,1.278156,0.349483,1.327155,0.115063,0.420749,-1.035733,-1.707074,-1.445760,-2.633030,-2.607144,-2.166630,-2.165301
A,4.027168,3.132516,2.532303,1.291313,0.360913,0.380954,1.090138,-0.794025,-1.974737,-1.452636,-1.440515,-2.625279,-2.386924,-2.376958,-2.163425
A,4.051711,3.468162,1.278156,0.349483,1.327155,0.115063,0.420749,-1.035733,-1.707074,-1.445760,-2.633030,-2.607144,-2.166630,-2.165301,-2.163934
A,3.132516,2.532303,1.291313,0.360913,0.380954,1.090138,-0.794025,-1.974737,-1.452636,-1.440515,-2.625279,-2.386924,-2.376958,-2.163425,-2.162016
A,3.468162,1.278156,0.349483,1.327155,0.115063,0.420749,-1.035733,-1.707074,-1.445760,-2.633030,-2.607144,-2.166630,-2.165301,-2.163934,-2.162528
A,2.532303,1.291313,0.360913,0.380954,1.090138,-0.794025,-1.974737,-1.452636,-1.440515,-2.625279,-2.386924,-2.376958,-2.163425,-2.162016,-3.140190
A,1.278156,0.349483,1.327155,0.115063,0.420749,-1.035733,-1.707074,-1.445760,-2.633030,-2.607144,-2.166630,-2.165301,-2.163934,-2.162528,-3.140525
A,1.291313,0.360913,0.380954,1.090138,-0.794025,-1.974737,-1.452636,-1.440515,-2.625279,-2.386924,-2.376958,-2.163425,-2.162016,-3.140190,-3.139559
A,8.151205,10.055717,6.989695,7.061023,6.780870,4.368175,2.504451,2.204213,1.639573,-0.741272,-1.309414,-1.709790,-1.680108,-2.402743,-2.393211
A,8.198247,9.183727,6.096229,7.667922,4.949332,3.444143,1.569624,1.912194,0.438664,-0.669641,-1.978511,-1.454345,-1.671822,-2.398013,-2.388335
A,10.055717,6.989695,7.061023,6.780870,4.368175,2.504451,2.204213,1.639573,-0.741272,-1.309414,-1.709790,-1.680108,-2.402743,-2.393211,-2.169430
A,9.183727,6.096229,7.667922,4.949332,3.444143,1.569624,1.912194,0.438664,-0.669641,-1.978511,-1.454345,-1.671822,-2.398013,-2.388335,-2.167640
A,6.989695,7.061023,6.780870,4.368175,2.504451,2.204213,1.639573,-0.741272,-1.309414,-1.709790,-1.680108,-2.402743,-2.393211,-2.169430,-2.168149
A,6.096229,7.667922,4.949332,3.444143,1.569624,1.912194,0.438664,-0.669641,-1.978511,-1.454345,-1.671822,-2.398013,-2.388335,-2.167640,-2.166319
A,7.061023,6.780870,4.368175,2.504451,2.204213,1.639573,-0.741272,-1.309414,-1.709790,-1.680108,-2.402743,-2.393211,-2.169430,-2.168149,-2.166832
A,7.667922,4.949332,3.444143,1.569624,1.912194,0.438664,-0.669641,-1.978511,-1.454345,-1.671822,-2.398013,-2.388335,-2.167640,-2.166319,-2.164960
A,6.780870,4.368175,2.504451,2.204213,1.639573,-0.741272,-1.309414,-1.709790,-1.680108,-2.402743,-2.393211,-2.169430,-2.168149,-2.166832,-3.143312
A,4.949332,3.444143,1.569624,1.912194,0.438664,-0.669641,-1.978511,-1.454345,-1.671822,-2.398013,-2.388335,-2.167640,-2.166319,-2.164960,-4.120470
A,4.368175,2.504451,2.204213,1.639573,-0.741272,-1.309414,-1.709790,-1.680108,-2.402743,-2.393211,-2.169430,-2.168149,-2.166832,-3.143312,-4.120739
A,12.146560,7.191638,7.250546,4.444583,2.560603,3.532669,1.352011,1.647883,1.393379,0.450905,0.470782,0.256780,-0.895774,-1.609139,-4.904424
A,9.031503,8.171254,6.333271,3.510093,2.572941,2.587222,1.639992,1.380686,0.439727,0.459705,0.479569,0.043550,-0.864174,-3.743891,-5.843456
A,7.191638,7.250546,4.444583,2.560603,3.532669,1.352011,1.647883,1.393379,0.450905,0.470782,0.256780,-0.895774,-1.609139,-4.904424,-4.658351
A,8.171254,6.333271,3.510093,2.572941,2.587222,1.639992,1.380686,0.439727,0.459705,0.479569,0.043550,-0.864174,-3.743891,-5.843456,-3.472577
A,7.250546,4.444583,2.560603,3.532669,1.352011,1.647883,1.393379,0.450905,0.470782,0.256780,-0.895774,-1.609139,-4.904424,-4.658351,-3.298027
A,6.333271,3.510093,2.572941,2.587222,1.639992,1.380686,0.439727,0.459705,0.479569,0.043550,-0.864174,-3.743891,-5.843456,-3.472577,-3.124472
A,4.444583,2.560603,3.532669,1.352011,1.647883,1.393379,0.450905,0.470782,0.256780,-0.895774,-1.609139,-4.904424,-4.658351,-3.298027,-3.288503
A,3.510093,2.572941,2.587222,1.639992,1.380686,0.439727,0.459705,0.479569,0.043550,-0.864174,-3.743891,-5.843456,-3.472577,-3.124472,-3.123396
A,2.560603,3.532669,1.352011,1.647883,1.393379,0.450905,0.470782,0.256780,-0.895774,-1.609139,-4.904424,-4.658351,-3.298027,-3.288503,-4.108721
A,2.572941,2.587222,1.639992,1.380686,0.439727,0.459705,0.479569,0.043550,-0.864174,-3.743891,-5.843456,-3.472577,-3.124472,-3.123396,-4.109222
A,3.532669,1.352011,1.647883,1.393379,0.450905,0.470782,0.256780,-0.895774,-1.609139,-4.904424,-4.658351,-3.298027,-3.288503,-4.108721,-5.095494
A,2.587222,1.639992,1.380686,0.439727,0.459705,0.479569,0.043550,-0.864174,-3.743891,-5.843456,-3.472577,-3.124472,-3.123396,-4.109222,-5.095770
A,1.352011,1.647883,1.393379,0.450905,0.470782,0.256780,-0.895774,-1.609139,-4.904424,-4.658351,-3.298027,-3.288503,-4.108721,-5.095494,-5.095321
A,5.504564,4.224155,4.260429,4.654388,4.316109,4.008859,3.115928,1.897308,1.000532,1.049528,-1.361367,-1.989162,-1.459474,-2.653027,-2.404179
A,4.208733,4.246047,4.645411,4.660192,3.978369,4.033396,2.821604,0.982603,1.320354,-0.442055,-2.017827,-1.720463,-1.690964,-2.408842,-2.399445
A,4.224155,4.260429,4.654388,4.316109,4.008859,3.115928,1.897308,1.000532,1.049528,-1.361367,-1.989162,-1.459474,-2.653027,-2.404179,-2.394637
A,4.246047,4.645411,4.660192,3.978369,4.033396,2.821604,0.982603,1.320354,-0.442055,-2.017827,-1.720463,-1.690964,-2.408842,-2.399445,-2.389755
A,4.260429,4.654388,4.316109,4.008859,3.115928,1.897308,1.000532,1.049528,-1.361367,-1.989162,-1.459474,-2.653027,-2.404179,-2.394637,-3.361797
A,4.645411,4.660192,3.978369,4.033396,2.821604,0.982603,1.320354,-0.442055,-2.017827,-1.720463,-1.690964,-2.408842,-2.399445,-2.389755,-3.357469
A,4.654388,4.316109,4.008859,3.115928,1.897308,1.000532,1.049528,-1.361367,-1.989162,-1.459474,-2.653027,-2.404179,-2.394637,-3.361797,-3.144148
A,4.660192,3.978369,4.033396,2.821604,0.982603,1.320354,-0.442055,-2.017827,-1.720463,-1.690964,-2.408842,-2.399445,-2.389755,-3.357469,-3.142989
A,4.316109,4.008859,3.115928,1.897308,1.000532,1.049528,-1.361367,-1.989162,-1.459474,-2.653027,-2.404179,-2.394637,-3.361797,-3.144148,-3.143635
A,3.978369,4.033396,2.821604,0.982603,1.320354,-0.442055,-2.017827,-1.720463,-1.690964,-2.408842,-2.399445,-2.389755,-3.357469,-3.142989,-4.120605
A,4.008859,3.115928,1.897308,1.000532,1.049528,-1.361367,-1.989162,-1.459474,-2.653027,-2.404179,-2.394637,-3.361797,-3.144148,-3.143635,-4.120869
A,7.915640,4.272072,3.728331,3.737382,1.523173,2.748287,3.460405,1.376891,-0.943422,-1.971518,-2.889424,-4.573076,-3.364254,-3.356746,-3.142771
A,7.034551,3.723636,3.732912,2.455323,2.472220,3.402534,2.569650,0.199083,-1.572254,-2.913810,-3.839446,-4.559846,-3.144464,-3.143958,-3.143430
A,4.272072,3.728331,3.737382,1.523173,2.748287,3.460405,1.376891,-0.943422,-1.971518,-2.889424,-4.573076,-3.364254,-3.356746,-3.142771,-5.098616
A,6.191608,4.021952,2.504107,1.571634,1.271582,0.343922,0.364228,0.384442,0.404559,0.424576,-1.996829,-2.913810,-2.640197,-3.590435,-3.358693
A,4.931682,3.106248,1.569469,1.580081,1.284878,0.355463,0.375679,0.395801,0.415824,-0.788812,-2.937752,-2.657900,-3.607055,-3.368504,-3.572207
A,4.021952,2.504107,1.571634,1.271582,0.343922,0.364228,0.384442,0.404559,0.424576,-1.996829,-2.913810,-2.640197,-3.590435,-3.358693,-4.329560
A,3.106248,1.569469,1.580081,1.284878,0.355463,0.375679,0.395801,0.415824,-0.788812,-2.937752,-2.657900,-3.607055,-3.368504,-3.572207,-4.326730
A,2.504107,1.571634,1.271582,0.343922,0.364228,0.384442,0.404559,0.424576,-1.996829,-2.913810,-2.640197,-3.590435,-3.358693,-4.329560,-4.120227
A,1.569469,1.580081,1.284878,0.355463,0.375679,0.395801,0.415824,-0.788812,-2.937752,-2.657900,-3.607055,-3.368504,-3.572207,-4.326730,-4.119814
A,4.617756,3.335247,6.164222,6.215991,3.431249,2.184889,2.219209,2.252585,-0.200529,-0.130330,-0.777230,-1.712526,-3.859443,-5.006933,-3.353059
A,3.700985,5.205969,6.186252,4.352749,3.110796,2.204087,2.237831,1.023494,-0.163055,-1.059438,-1.723232,-1.693652,-4.811179,-4.772367,-2.370859
A,3.335247,6.164222,6.215991,3.431249,2.184889,2.219209,2.252585,-0.200529,-0.130330,-0.777230,-1.712526,-3.859443,-5.006933,-3.353059,-3.141782
A,5.205969,6.186252,4.352749,3.110796,2.204087,2.237831,1.023494,-0.163055,-1.059438,-1.723232,-1.693652,-4.811179,-4.772367,-2.370859,-3.140525
A,6.164222,6.215991,3.431249,2.184889,2.219209,2.252585,-0.200529,-0.130330,-0.777230,-1.712526,-3.859443,-5.006933,-3.353059,-3.141782,-3.141197
A,6.186252,4.352749,3.110796,2.204087,2.237831,1.023494,-0.163055,-1.059438,-1.723232,-1.693652,-4.811179,-4.772367,-2.370859,-3.140525,-3.139901
A,6.215991,3.431249,2.184889,2.219209,2.252585,-0.200529,-0.130330,-0.777230,-1.712526,-3.859443,-5.006933,-3.353059,-3.141782,-3.141197,-3.140586
A,4.352749,3.110796,2.204087,2.237831,1.023494,-0.163055,-1.059438,-1.723232,-1.693652,-4.811179,-4.772367,-2.370859,-3.140525,-3.139901,-5.098968
A,11.836985,9.734826,6.123423,3.370314,2.456352,1.193303,3.111485,1.584176,0.432127,-1.641637,-1.986144,-2.667857,-2.413223,-3.378006,-3.148229
A,10.587485,7.943102,5.221004,2.450316,2.467226,2.150463,2.816062,0.678748,-0.755434,-2.286911,-1.960594,-2.417827,-3.382021,-2.400441,-3.147230
A,9.734826,6.123423,3.370314,2.456352,1.193303,3.111485,1.584176,0.432127,-1.641637,-1.986144,-2.667857,-2.413223,-3.378006,-3.148229,-2.173029
A,7.943102,5.221004,2.450316,2.467226,2.150463,2.816062,0.678748,-0.755434,-2.286911,-1.960594,-2.417827,-3.382021,-2.400441,-3.147230,-3.146803
A,6.123423,3.370314,2.456352,1.193303,3.111485,1.584176,0.432127,-1.641637,-1.986144,-2.667857,-2.413223,-3.378006,-3.148229,-2.173029,-3.147111
A,5.221004,2.450316,2.467226,2.150463,2.816062,0.678748,-0.755434,-2.286911,-1.960594,-2.417827,-3.382021,-2.400441,-3.147230,-3.146803,-3.146358
A,6.132113,4.311913,3.403466,1.541633,1.552591,1.563337,1.258267,0.028896,0.459813,-0.823331,-1.755047,-1.726021,-1.457801,-1.677119,-3.375530
A,4.292223,3.387082,2.130589,1.550334,1.561151,1.571759,1.271495,-0.539983,-0.163055,-0.800357,-1.481551,-1.715282,-1.685435,-2.405625,-3.148321
A,4.311913,3.403466,1.541633,1.552591,1.563337,1.258267,0.028896,0.459813,-0.823331,-1.755047,-1.726021,-1.457801,-1.677119,-3.375530,-3.147640
A,3.387082,2.130589,1.550334,1.561151,1.571759,1.271495,-0.539983,-0.163055,-0.800357,-1.481551,-1.715282,-1.685435,-2.405625,-3.148321,-3.369745
A,3.403466,1.541633,1.552591,1.563337,1.258267,0.028896,0.459813,-0.823331,-1.755047,-1.726021,-1.457801,-1.677119,-3.375530,-3.147640,-3.366742
A,2.130589,1.550334,1.561151,1.571759,1.271495,-0.539983,-0.163055,-0.800357,-1.481551,-1.715282,-1.685435,-2.405625,-3.148321,-3.369745,-4.339118
A,1.541633,1.552591,1.563337,1.258267,0.028896,0.459813,-0.823331,-1.755047,-1.726021,-1.457801,-1.677119,-3.375530,-3.147640,-3.366742,-4.336480
A,5.205817,4.311913,2.464294,1.539302,2.165979,1.569624,1.268208,0.340783,-0.779343,-1.339223,-2.941288,-3.632360,-3.383269,-2.401917,-3.147531
A,4.292223,3.387082,1.189567,1.548056,2.504451,1.254911,1.281401,-0.233041,-1.664610,-2.000706,-2.917291,-3.385960,-3.379255,-3.148522,-2.394980
A,4.311913,2.464294,1.539302,2.165979,1.569624,1.268208,0.340783,-0.779343,-1.339223,-2.941288,-3.632360,-3.383269,-2.401917,-3.147531,-2.171780
A,3.387082,1.189567,1.548056,2.504451,1.254911,1.281401,-0.233041,-1.664610,-2.000706,-2.917291,-3.385960,-3.379255,-3.148522,-2.394980,-2.169963
A,13.285469,10.580384,5.238558,3.400002,2.480805,2.169982,1.571759,1.271495,1.297639,0.077803,-0.686750,-1.265817,-1.685647,-1.655686,-3.365376
A,12.419124,7.814798,3.383493,3.406896,1.210793,2.507097,1.258267,1.284619,0.061590,0.786979,-1.576509,-1.945701,-1.438847,-1.647248,-3.361212
A,10.580384,5.238558,3.400002,2.480805,2.169982,1.571759,1.271495,1.297639,0.077803,-0.686750,-1.265817,-1.685647,-1.655686,-3.365376,-3.145112
A,7.814798,3.383493,3.406896,1.210793,2.507097,1.258267,1.284619,0.061590,0.786979,-1.576509,-1.945701,-1.438847,-1.647248,-3.361212,-4.121216
A,5.238558,3.400002,2.480805,2.169982,1.571759,1.271495,1.297639,0.077803,-0.686750,-1.265817,-1.685647,-1.655686,-3.365376,-3.145112,-5.098038
A,3.383493,3.406896,1.210793,2.507097,1.258267,1.284619,0.061590,0.786979,-1.576509,-1.945701,-1.438847,-1.647248,-3.361212,-4.121216,-5.098263
A,3.400002,2.480805,2.169982,1.571759,1.271495,1.297639,0.077803,-0.686750,-1.265817,-1.685647,-1.655686,-3.365376,-3.145112,-5.098038,-4.121490
A,3.406896,1.210793,2.507097,1.258267,1.284619,0.061590,0.786979,-1.576509,-1.945701,-1.438847,-1.647248,-3.361212,-4.121216,-5.098263,-5.098228
A,2.480805,2.169982,1.571759,1.271495,1.297639,0.077803,-0.686750,-1.265817,-1.685647,-1.655686,-3.365376,-3.145112,-5.098038,-4.121490,-5.098045
A,1.210793,2.507097,1.258267,1.284619,0.061590,0.786979,-1.576509,-1.945701,-1.438847,-1.647248,-3.361212,-4.121216,-5.098263,-5.098228,-6.074923
A,2.169982,1.571759,1.271495,1.297639,0.077803,-0.686750,-1.265817,-1.685647,-1.655686,-3.365376,-3.145112,-5.098038,-4.121490,-5.098045,-7.050371
A,2.507097,1.258267,1.284619,0.061590,0.786979,-1.576509,-1.945701,-1.438847,-1.647248,-3.361212,-4.121216,-5.098263,-5.098228,-6.074923,-6.074464
A,1.571759,1.271495,1.297639,0.077803,-0.686750,-1.265817,-1.685647,-1.655686,-3.365376,-3.145112,-5.098038,-4.121490,-5.098045,-7.050371,-4.121762
A,9.268350,5.590952,3.738766,2.809779,3.412755,3.435116,2.189150,1.271495,1.297639,0.472578,-2.347342,-2.143258,-2.610483,-3.355782,-3.142567
A,8.361705,4.666405,2.806553,3.749524,3.419475,2.169982,2.204213,1.284619,1.310556,-1.267441,-2.951463,-1.875497,-3.360021,-3.143710,-3.143199
A,5.590952,3.738766,2.809779,3.412755,3.435116,2.189150,1.271495,1.297639,0.472578,-2.347342,-2.143258,-2.610483,-3.355782,-3.142567,-4.120431
A,4.666405,2.806553,3.749524,3.419475,2.169982,2.204213,1.284619,1.310556,-1.267441,-2.951463,-1.875497,-3.360021,-3.143710,-3.143199,-4.120696
A,3.738766,2.809779,3.412755,3.435116,2.189150,1.271495,1.297639,0.472578,-2.347342,-2.143258,-2.610483,-3.355782,-3.142567,-4.120431,-5.098691
A,2.806553,3.749524,3.419475,2.169982,2.204213,1.284619,1.310556,-1.267441,-2.951463,-1.875497,-3.360021,-3.143710,-3.143199,-4.120696,-5.098573
A,2.809779,3.412755,3.435116,2.189150,1.271495,1.297639,0.472578,-2.347342,-2.143258,-2.610483,-3.355782,-3.142567,-4.120431,-5.098691,-5.098675
A,3.749524,3.419475,2.169982,2.204213,1.284619,1.310556,-1.267441,-2.951463,-1.875497,-3.360021,-3.143710,-3.143199,-4.120696,-5.098573,-5.098552
A,3.412755,3.435116,2.189150,1.271495,1.297639,0.472578,-2.347342,-2.143258,-2.610483,-3.355782,-3.142567,-4.120431,-5.098691,-5.098675,-4.120409
A,3.419475,2.169982,2.204213,1.284619,1.310556,-1.267441,-2.951463,-1.875497,-3.360021,-3.143710,-3.143199,-4.120696,-5.098573,-5.098552,-5.098529
A,4.657308,2.447253,1.525624,2.477972,2.494094,1.241509,1.580095,0.332099,1.307474,0.374910,-0.422071,-1.285050,-2.903517,-2.854650,-2.385523
A,3.376204,1.523173,1.534575,2.488590,2.504451,1.571759,1.271495,0.343562,0.363605,1.063050,-1.599404,-1.960250,-2.879304,-2.615093,-3.358166
A,2.447253,1.525624,2.477972,2.494094,1.241509,1.580095,0.332099,1.307474,0.374910,-0.422071,-1.285050,-2.903517,-2.854650,-2.385523,-5.098215
A,1.523173,1.534575,2.488590,2.504451,1.571759,1.271495,0.343562,0.363605,1.063050,-1.599404,-1.960250,-2.879304,-2.615093,-3.358166,-6.075733
A,1.525624,2.477972,2.494094,1.241509,1.580095,0.332099,1.307474,0.374910,-0.422071,-1.285050,-2.903517,-2.854650,-2.385523,-5.098215,-4.121264
A,1.534575,2.488590,2.504451,1.571759,1.271495,0.343562,0.363605,1.063050,-1.599404,-1.960250,-2.879304,-2.615093,-3.358166,-6.075733,-3.143635
A,2.477972,2.494094,1.241509,1.580095,0.332099,1.307474,0.374910,-0.422071,-1.285050,-2.903517,-2.854650,-2.385523,-5.098215,-4.121264,-3.143958
A,2.488590,2.504451,1.571759,1.271495,0.343562,0.363605,1.063050,-1.599404,-1.960250,-2.879304,-2.615093,-3.358166,-6.075733,-3.143635,-4.120869
A,2.494094,1.241509,1.580095,0.332099,1.307474,0.374910,-0.422071,-1.285050,-2.903517,-2.854650,-2.385523,-5.098215,-4.121264,-3.143958,-7.052461
A,2.504451,1.571759,1.271495,0.343562,0.363605,1.063050,-1.599404,-1.960250,-2.879304,-2.615093,-3.358166,-6.075733,-3.143635,-4.120869,-8.030327
A,1.241509,1.580095,0.332099,1.307474,0.374910,-0.422071,-1.285050,-2.903517,-2.854650,-2.385523,-5.098215,-4.121264,-3.143958,-7.052461,-7.051197
A,6.864031,6.514565,8.417724,5.298553,2.499082,2.196587,1.278156,1.009846,0.380954,-0.407746,-0.055655,-0.958442,-1.430261,-2.610483,-4.745570
A,6.501453,7.466610,7.501853,3.428632,2.181354,1.264894,0.991863,1.327155,0.115063,-0.361809,-0.989501,-1.674860,-1.424910,-3.790231,-5.507559
A,6.514565,8.417724,5.298553,2.499082,2.196587,1.278156,1.009846,0.380954,-0.407746,-0.055655,-0.958442,-1.430261,-2.610483,-4.745570,-6.279000
A,7.466610,7.501853,3.428632,2.181354,1.264894,0.991863,1.327155,0.115063,-0.361809,-0.989501,-1.674860,-1.424910,-3.790231,-5.507559,-7.058041
A,8.417724,5.298553,2.499082,2.196587,1.278156,1.009846,0.380954,-0.407746,-0.055655,-0.958442,-1.430261,-2.610483,-4.745570,-6.279000,-5.877188
A,7.501853,3.428632,2.181354,1.264894,0.991863,1.327155,0.115063,-0.361809,-0.989501,-1.674860,-1.424910,-3.790231,-5.507559,-7.058041,-3.915915
A,5.298553,2.499082,2.196587,1.278156,1.009846,0.380954,-0.407746,-0.055655,-0.958442,-1.430261,-2.610483,-4.745570,-6.279000,-5.877188,-4.119814
A,3.428632,2.181354,1.264894,0.991863,1.327155,0.115063,-0.361809,-0.989501,-1.674860,-1.424910,-3.790231,-5.507559,-7.058041,-3.915915,-5.098765
A,2.499082,2.196587,1.278156,1.009846,0.380954,-0.407746,-0.055655,-0.958442,-1.430261,-2.610483,-4.745570,-6.279000,-5.877188,-4.119814,-6.077882
A,2.181354,1.264894,0.991863,1.327155,0.115063,-0.361809,-0.989501,-1.674860,-1.424910,-3.790231,-5.507559,-7.058041,-3.915915,-5.098765,-7.055339
A,2.196587,1.278156,1.009846,0.380954,-0.407746,-0.055655,-0.958442,-1.430261,-2.610483,-4.745570,-6.279000,-5.877188,-4.119814,-6.077882,-7.056142
A,8.035423,5.285210,2.490829,1.560882,1.571634,1.582175,1.592509,1.304365,0.086434,0.400900,-1.833092,-2.394198,-1.636197,-2.377824,-4.120525
A,7.139266,4.367355,1.558645,1.569469,1.580081,1.590483,1.600680,1.027705,0.392223,-1.085807,-2.959172,-1.878962,-1.406860,-3.143400,-3.142883
A,5.285210,2.490829,1.560882,1.571634,1.582175,1.592509,1.304365,0.086434,0.400900,-1.833092,-2.394198,-1.636197,-2.377824,-4.120525,-2.163425
A,4.367355,1.558645,1.569469,1.580081,1.590483,1.600680,1.027705,0.392223,-1.085807,-2.959172,-1.878962,-1.406860,-3.143400,-3.142883,-2.163934
A,2.490829,1.560882,1.571634,1.582175,1.592509,1.304365,0.086434,0.400900,-1.833092,-2.394198,-1.636197,-2.377824,-4.120525,-2.163425,-3.141124
A,1.558645,1.569469,1.580081,1.590483,1.600680,1.027705,0.392223,-1.085807,-2.959172,-1.878962,-1.406860,-3.143400,-3.142883,-2.163934,-5.098742
A,1.560882,1.571634,1.582175,1.592509,1.304365,0.086434,0.400900,-1.833092,-2.394198,-1.636197,-2.377824,-4.120525,-2.163425,-3.141124,-6.077746
A,1.569469,1.580081,1.590483,1.600680,1.027705,0.392223,-1.085807,-2.959172,-1.878962,-1.406860,-3.143400,-3.142883,-2.163934,-5.098742,-5.098728
A,4.997537,8.707175,10.820845,6.226124,4.382371,2.832362,0.991863,0.082644,-1.190732,-3.850542,-2.607144,-2.166630,-3.143199,-6.076169,-5.098436
A,6.847066,10.212795,8.061748,4.360543,4.066551,1.907274,1.009846,-0.724432,-3.233730,-2.857938,-2.386924,-3.355045,-4.120564,-6.076602,-5.098552
A,4.998691,8.709621,8.017954,5.272907,3.425341,2.804832,1.274883,1.301230,-1.027140,-1.548973,-1.927263,-1.652360,-2.386924,-3.144330,-5.098263
A,5.924047,10.209356,6.182908,3.409344,3.102475,1.882234,1.288109,0.736526,-2.157995,-2.194413,-1.663435,-1.417226,-2.381979,-4.120905,-7.053139
A,8.709621,8.017954,5.272907,3.425341,2.804832,1.274883,1.301230,-1.027140,-1.548973,-1.927263,-1.652360,-2.386924,-3.144330,-5.098263,-7.051669
A,10.209356,6.182908,3.409344,3.102475,1.882234,1.288109,0.736526,-2.157995,-2.194413,-1.663435,-1.417226,-2.381979,-4.120905,-7.053139,-7.051956
A,4.573259,3.673394,4.072827,15.759965,13.713377,5.013142,3.170563,1.961593,0.238938,-1.779143,-2.879304,-4.783515,-3.355045,-3.142344,-3.141782
A,3.666945,4.070277,9.610763,17.343809,6.858268,4.094561,2.891713,0.759263,-0.899822,-2.185042,-3.830135,-4.554058,-3.351846,-3.141453,-4.119935
A,3.673394,4.072827,15.759965,13.713377,5.013142,3.170563,1.961593,0.238938,-1.779143,-2.879304,-4.783515,-3.355045,-3.142344,-3.141782,-5.098777
A,4.070277,9.610763,17.343809,6.858268,4.094561,2.891713,0.759263,-0.899822,-2.185042,-3.830135,-4.554058,-3.351846,-3.141453,-4.119935,-4.892492
A,4.072827,15.759965,13.713377,5.013142,3.170563,1.961593,0.238938,-1.779143,-2.879304,-4.783515,-3.355045,-3.142344,-3.141782,-5.098777,-4.890515
A,8.369898,3.382140,2.466354,2.482978,2.499082,2.196587,1.278156,-0.810511,-1.416120,-3.357087,-4.562641,-4.334981,-4.120950,-4.120869,-6.075975
A,6.166571,3.398897,2.480130,2.496358,2.512079,1.264894,0.991863,-1.294997,-2.974767,-4.056646,-4.337579,-4.121264,-3.143958,-6.075515,-5.098242
A,8.467528,13.046026,12.262979,17.912708,12.703865,6.853024,3.467605,1.961593,-0.991222,-1.519491,-2.133502,-3.581924,-3.144020,-4.121027,-5.098390
A,11.190752,13.115513,14.157162,17.638746,7.146868,5.290629,2.576113,0.759263,-2.118673,-2.171047,-2.625279,-3.363614,-3.356253,-5.098530,-4.120739
A,13.046026,12.262979,17.912708,12.703865,6.853024,3.467605,1.961593,-0.991222,-1.519491,-2.133502,-3.581924,-3.144020,-4.121027,-5.098390,-3.143430
A,13.115513,14.157162,17.638746,7.146868,5.290629,2.576113,0.759263,-2.118673,-2.171047,-2.625279,-3.363614,-3.356253,-5.098530,-4.120739,-2.164237
A,4.076692,4.078460,6.488112,8.967556,4.345939,2.488590,2.810472,1.627638,0.206557,-0.092929,-1.963977,-1.447449,-2.857938,-4.340104,-5.312297
A,3.154385,5.005117,8.930341,7.141181,3.425341,2.501780,2.529682,1.390800,-0.407746,-1.024446,-1.699067,-2.643060,-3.593409,-5.314379,-4.121378
A,4.078460,6.488112,8.967556,4.345939,2.488590,2.810472,1.627638,0.206557,-0.092929,-1.963977,-1.447449,-2.857938,-4.340104,-5.312297,-3.143635
A,5.005117,8.930341,7.141181,3.425341,2.501780,2.529682,1.390800,-0.407746,-1.024446,-1.699067,-2.643060,-3.593409,-5.314379,-4.121378,-3.144281
A,6.488112,8.967556,4.345939,2.488590,2.810472,1.627638,0.206557,-0.092929,-1.963977,-1.447449,-2.857938,-4.340104,-5.312297,-3.143635,-5.098436
A,8.930341,7.141181,3.425341,2.501780,2.529682,1.390800,-0.407746,-1.024446,-1.699067,-2.643060,-3.593409,-5.314379,-4.121378,-3.144281,-6.075223
A,8.967556,4.345939,2.488590,2.810472,1.627638,0.206557,-0.092929,-1.963977,-1.447449,-2.857938,-4.340104,-5.312297,-3.143635,-5.098436,-6.075691
A,8.741001,5.959622,4.332528,4.363501,3.446861,2.843215,1.664999,1.068591,-0.621564,-1.212617,-1.875497,-1.405288,-2.371464,-3.140734,-2.160493
A,7.817007,4.673808,4.344790,3.431249,3.132516,2.569650,1.037161,0.550927,-1.513412,-1.905232,-1.636197,-1.399681,-2.163295,-3.141055,-3.140468
A,5.959622,4.332528,4.363501,3.446861,2.843215,1.664999,1.068591,-0.621564,-1.212617,-1.875497,-1.405288,-2.371464,-3.140734,-2.160493,-4.119168
A,4.673808,4.344790,3.431249,3.132516,2.569650,1.037161,0.550927,-1.513412,-1.905232,-1.636197,-1.399681,-2.163295,-3.141055,-3.140468,-5.098925
A,4.668132,4.336659,4.367355,2.504107,2.204087,1.284878,1.019249,0.523517,-1.054400,-1.890394,-2.602560,-4.329922,-3.344955,-3.139521,-6.078773
A,4.324131,5.297461,3.443673,2.517097,1.271582,1.001212,1.050843,0.059969,-1.443394,-2.837317,-3.562976,-3.141055,-3.140468,-4.119481,-7.057593
A,4.336659,4.367355,2.504107,2.204087,1.284878,1.019249,0.523517,-1.054400,-1.890394,-2.602560,-4.329922,-3.344955,-3.139521,-6.078773,-8.037130
A,4.810784,6.751926,12.829940,11.884111,8.525400,6.611995,5.458422,3.976406,2.455077,0.676064,0.157682,-0.578680,-1.292918,-1.174395,-2.155917
A,5.781528,9.917974,13.809239,8.742369,8.541380,4.668401,5.081334,3.052637,1.653533,0.401100,-0.756564,-1.416621,-1.182431,-1.167023,-2.148698
A,6.751926,12.829940,11.884111,8.525400,6.611995,5.458422,3.976406,2.455077,0.676064,0.157682,-0.578680,-1.292918,-1.174395,-2.155917,-2.069823
A,9.917974,13.809239,8.742369,8.541380,4.668401,5.081334,3.052637,1.653533,0.401100,-0.756564,-1.416621,-1.182431,-1.167023,-2.148698,-2.066425
A,12.829940,11.884111,8.525400,6.611995,5.458422,3.976406,2.455077,0.676064,0.157682,-0.578680,-1.292918,-1.174395,-2.155917,-2.069823,-2.066691
A,13.809239,8.742369,8.541380,4.668401,5.081334,3.052637,1.653533,0.401100,-0.756564,-1.416621,-1.182431,-1.167023,-2.148698,-2.066425,-2.063217
A,11.884111,8.525400,6.611995,5.458422,3.976406,2.455077,0.676064,0.157682,-0.578680,-1.292918,-1.174395,-2.155917,-2.069823,-2.066691,-2.063473
A,8.742369,8.541380,4.668401,5.081334,3.052637,1.653533,0.401100,-0.756564,-1.416621,-1.182431,-1.167023,-2.148698,-2.066425,-2.063217,-2.059920
A,8.525400,6.611995,5.458422,3.976406,2.455077,0.676064,0.157682,-0.578680,-1.292918,-1.174395,-2.155917,-2.069823,-2.066691,-2.063473,-3.058211
A,8.541380,4.668401,5.081334,3.052637,1.653533,0.401100,-0.756564,-1.416621,-1.182431,-1.167023,-2.148698,-2.066425,-2.063217,-2.059920,-7.047864
A,6.611995,5.458422,3.976406,2.455077,0.676064,0.157682,-0.578680,-1.292918,-1.174395,-2.155917,-2.069823,-2.066691,-2.063473,-3.058211,-10.042685
A,4.668401,5.081334,3.052637,1.653533,0.401100,-0.756564,-1.416621,-1.182431,-1.167023,-2.148698,-2.066425,-2.063217,-2.059920,-7.047864,-13.036351
A,9.416113,5.353821,3.486001,2.552628,1.611458,1.334927,1.088015,0.881820,-0.245088,-0.899408,-0.632854,-2.558918,-3.327620,-3.319237,-3.131794
A,8.166960,4.427121,3.500797,1.609499,1.619614,1.347923,1.806927,-0.043506,-1.173481,-0.867693,-1.589181,-2.539938,-3.133746,-3.132961,-3.132143
A,5.353821,3.486001,2.552628,1.611458,1.334927,1.088015,0.881820,-0.245088,-0.899408,-0.632854,-2.558918,-3.327620,-3.319237,-3.131794,-3.130936
A,4.427121,3.500797,1.609499,1.619614,1.347923,1.806927,-0.043506,-1.173481,-0.867693,-1.589181,-2.539938,-3.133746,-3.132961,-3.132143,-3.131291
A,3.486001,2.552628,1.611458,1.334927,1.088015,0.881820,-0.245088,-0.899408,-0.632854,-2.558918,-3.327620,-3.319237,-3.131794,-3.130936,-2.145740
A,3.500797,1.609499,1.619614,1.347923,1.806927,-0.043506,-1.173481,-0.867693,-1.589181,-2.539938,-3.133746,-3.132961,-3.132143,-3.131291,-3.130403
A,10.672724,9.439030,7.275479,4.461594,3.242654,1.780154,1.407811,1.188451,1.009827,-1.074651,-1.769592,-2.695395,-2.313092,-4.275295,-5.095932
A,9.752032,9.143243,6.355019,3.524581,2.985551,2.087142,0.205612,1.219536,0.073017,-1.034739,-2.722151,-2.498916,-2.307374,-5.257836,-4.934657
A,9.439030,7.275479,4.461594,3.242654,1.780154,1.407811,1.188451,1.009827,-1.074651,-1.769592,-2.695395,-2.313092,-4.275295,-5.095932,-4.108721
A,9.143243,6.355019,3.524581,2.985551,2.087142,0.205612,1.219536,0.073017,-1.034739,-2.722151,-2.498916,-2.307374,-5.257836,-4.934657,-4.109222
A,7.275479,4.461594,3.242654,1.780154,1.407811,1.188451,1.009827,-1.074651,-1.769592,-2.695395,-2.313092,-4.275295,-5.095932,-4.108721,-4.108170
A,6.355019,3.524581,2.985551,2.087142,0.205612,1.219536,0.073017,-1.034739,-2.722151,-2.498916,-2.307374,-5.257836,-4.934657,-4.109222,-5.095770
A,6.672159,5.712880,3.591500,1.807429,2.648832,1.684570,0.715473,0.495032,0.207558,-1.288986,-1.118896,-1.148223,-3.076363,-5.030592,-5.027400
A,6.688916,4.742311,2.785558,2.636547,1.673360,0.705158,1.716197,0.200827,-0.513093,-1.197319,-1.160273,-2.084969,-4.034610,-5.030842,-6.027240
A,5.712880,3.591500,1.807429,2.648832,1.684570,0.715473,0.495032,0.207558,-1.288986,-1.118896,-1.148223,-3.076363,-5.030592,-5.027400,-8.023133
A,6.885460,3.937819,2.785300,1.808381,3.791890,1.825326,2.681786,1.588231,0.639121,-0.830340,-4.481703,-5.084261,-8.035117,-9.011221,-7.999608
A,4.921190,2.954417,1.801514,2.796398,2.805973,1.680187,2.562133,1.735277,0.352775,-2.774565,-5.182125,-7.043105,-9.027003,-8.999574,-6.999641
A,3.937819,2.785300,1.808381,3.791890,1.825326,2.681786,1.588231,0.639121,-0.830340,-4.481703,-5.084261,-8.035117,-9.011221,-7.999608,-6.007497
A,2.954417,1.801514,2.796398,2.805973,1.680187,2.562133,1.735277,0.352775,-2.774565,-5.182125,-7.043105,-9.027003,-8.999574,-6.999641,-4.007678
A,4.901459,5.700421,3.932120,3.934585,3.763774,2.789858,4.323924,3.427093,1.319211,-0.650108,-2.265985,-2.076653,-3.060063,-6.022821,-5.019605
A,5.694487,4.913133,3.933369,3.761076,2.787603,4.616282,4.373777,1.486109,0.207558,-1.463257,-2.134118,-2.068589,-5.026728,-6.023107,-4.020041
A,5.700421,3.932120,3.934585,3.763774,2.789858,4.323924,3.427093,1.319211,-0.650108,-2.265985,-2.076653,-3.060063,-6.022821,-5.019605,-6.015676
A,4.913133,3.933369,3.761076,2.787603,4.616282,4.373777,1.486109,0.207558,-1.463257,-2.134118,-2.068589,-5.026728,-6.023107,-4.020041,-7.015712
A,3.932120,3.934585,3.763774,2.789858,4.323924,3.427093,1.319211,-0.650108,-2.265985,-2.076653,-3.060063,-6.022821,-5.019605,-6.015676,-7.011629
A,12.668386,6.837931,5.666530,3.725394,3.739151,3.752238,1.794273,1.637475,1.660036,0.279774,0.078362,-3.500838,-6.248426,-4.101230,-5.042063
A,9.758294,6.843859,3.714267,3.728500,3.742037,2.770639,1.795276,1.479554,1.525279,0.088794,-1.692833,-5.362405,-5.169542,-4.046370,-6.041311
A,6.837931,5.666530,3.725394,3.739151,3.752238,1.794273,1.637475,1.660036,0.279774,0.078362,-3.500838,-6.248426,-4.101230,-5.042063,-9.035672
A,6.843859,3.714267,3.728500,3.742037,2.770639,1.795276,1.479554,1.525279,0.088794,-1.692833,-5.362405,-5.169542,-4.046370,-6.041311,-10.035085
A,5.666530,3.725394,3.739151,3.752238,1.794273,1.637475,1.660036,0.279774,0.078362,-3.500838,-6.248426,-4.101230,-5.042063,-9.035672,-7.992223
A,3.714267,3.728500,3.742037,2.770639,1.795276,1.479554,1.525279,0.088794,-1.692833,-5.362405,-5.169542,-4.046370,-6.041311,-10.035085,-6.992956
A,3.725394,3.739151,3.752238,1.794273,1.637475,1.660036,0.279774,0.078362,-3.500838,-6.248426,-4.101230,-5.042063,-9.035672,-7.992223,-4.994816
A,3.728500,3.742037,2.770639,1.795276,1.479554,1.525279,0.088794,-1.692833,-5.362405,-5.169542,-4.046370,-6.041311,-10.035085,-6.992956,-4.039745
A,5.665483,5.881276,4.905960,3.742396,2.771197,2.781315,2.791070,1.656938,0.546864,0.717956,0.736975,0.432192,-0.455519,-1.220463,-1.126149
A,5.671993,5.884532,3.926456,2.761986,2.772408,2.782454,2.631222,1.521066,0.709016,0.728079,0.518684,-0.497491,-1.245146,-1.208953,-1.118395
A,5.881276,4.905960,3.742396,2.771197,2.781315,2.791070,1.656938,0.546864,0.717956,0.736975,0.432192,-0.455519,-1.220463,-1.126149,-2.108744
A,5.884532,3.926456,2.761986,2.772408,2.782454,2.631222,1.521066,0.709016,0.728079,0.518684,-0.497491,-1.245146,-1.208953,-1.118395,-2.101045
A,4.905960,3.742396,2.771197,2.781315,2.791070,1.656938,0.546864,0.717956,0.736975,0.432192,-0.455519,-1.220463,-1.126149,-2.108744,-2.047438
A,3.926456,2.761986,2.772408,2.782454,2.631222,1.521066,0.709016,0.728079,0.518684,-0.497491,-1.245146,-1.208953,-1.118395,-2.101045,-2.043700
A,3.742396,2.771197,2.781315,2.791070,1.656938,0.546864,0.717956,0.736975,0.432192,-0.455519,-1.220463,-1.126149,-2.108744,-2.047438,-2.043882
A,2.761986,2.772408,2.782454,2.631222,1.521066,0.709016,0.728079,0.518684,-0.497491,-1.245146,-1.208953,-1.118395,-2.101045,-2.043700,-2.040060
A,2.771197,2.781315,2.791070,1.656938,0.546864,0.717956,0.736975,0.432192,-0.455519,-1.220463,-1.126149,-2.108744,-2.047438,-2.043882,-3.039427
A,2.772408,2.782454,2.631222,1.521066,0.709016,0.728079,0.518684,-0.497491,-1.245146,-1.208953,-1.118395,-2.101045,-2.043700,-2.040060,-5.034384
A,2.781315,2.791070,1.656938,0.546864,0.717956,0.736975,0.432192,-0.455519,-1.220463,-1.126149,-2.108744,-2.047438,-2.043882,-3.039427,-7.033315
A,2.782454,2.631222,1.521066,0.709016,0.728079,0.518684,-0.497491,-1.245146,-1.208953,-1.118395,-2.101045,-2.043700,-2.040060,-5.034384,-9.029215
A,2.791070,1.656938,0.546864,0.717956,0.736975,0.432192,-0.455519,-1.220463,-1.126149,-2.108744,-2.047438,-2.043882,-3.039427,-7.033315,-10.029092
A,2.631222,1.521066,0.709016,0.728079,0.518684,-0.497491,-1.245146,-1.208953,-1.118395,-2.101045,-2.043700,-2.040060,-5.034384,-9.029215,-10.026445
A,1.656938,0.546864,0.717956,0.736975,0.432192,-0.455519,-1.220463,-1.126149,-2.108744,-2.047438,-2.043882,-3.039427,-7.033315,-10.029092,-9.027435
A,5.097241,4.664490,7.623200,6.672063,3.745282,3.758236,2.784697,1.647214,1.523182,0.447619,0.518684,-0.497491,-1.319723,-1.134375,-1.118395
A,4.876249,5.648941,8.613839,4.717044,2.765770,2.775968,2.620707,1.658494,0.410670,1.475047,-0.539357,-1.352749,-1.221390,-1.126680,-1.110552
A,4.664490,7.623200,6.672063,3.745282,3.758236,2.784697,1.647214,1.523182,0.447619,0.518684,-0.497491,-1.319723,-1.134375,-1.118395,-4.098742
A,5.648941,8.613839,4.717044,2.765770,2.775968,2.620707,1.658494,0.410670,1.475047,-0.539357,-1.352749,-1.221390,-1.126680,-1.110552,-6.089366
A,7.623200,6.672063,3.745282,3.758236,2.784697,1.647214,1.523182,0.447619,0.518684,-0.497491,-1.319723,-1.134375,-1.118395,-4.098742,-8.081182
A,8.613839,4.717044,2.765770,2.775968,2.620707,1.658494,0.410670,1.475047,-0.539357,-1.352749,-1.221390,-1.126680,-1.110552,-6.089366,-8.035557
A,6.672063,3.745282,3.758236,2.784697,1.647214,1.523182,0.447619,0.518684,-0.497491,-1.319723,-1.134375,-1.118395,-4.098742,-8.081182,-11.030960
A,4.717044,2.765770,2.775968,2.620707,1.658494,0.410670,1.475047,-0.539357,-1.352749,-1.221390,-1.126680,-1.110552,-6.089366,-8.035557,-14.028981
A,3.745282,3.758236,2.784697,1.647214,1.523182,0.447619,0.518684,-0.497491,-1.319723,-1.134375,-1.118395,-4.098742,-8.081182,-11.030960,-13.028094
A,2.765770,2.775968,2.620707,1.658494,0.410670,1.475047,-0.539357,-1.352749,-1.221390,-1.126680,-1.110552,-6.089366,-8.035557,-14.028981,-11.030012
A,3.758236,2.784697,1.647214,1.523182,0.447619,0.518684,-0.497491,-1.319723,-1.134375,-1.118395,-4.098742,-8.081182,-11.030960,-13.028094,-8.029240
A,2.775968,2.620707,1.658494,0.410670,1.475047,-0.539357,-1.352749,-1.221390,-1.126680,-1.110552,-6.089366,-8.035557,-14.028981,-11.030012,-7.030290
A,2.784697,1.647214,1.523182,0.447619,0.518684,-0.497491,-1.319723,-1.134375,-1.118395,-4.098742,-8.081182,-11.030960,-13.028094,-8.029240,-6.027052
A,2.620707,1.658494,0.410670,1.475047,-0.539357,-1.352749,-1.221390,-1.126680,-1.110552,-6.089366,-8.035557,-14.028981,-11.030012,-7.030290,-5.027841
A,11.909057,11.925032,11.529632,9.618812,5.718050,3.765537,2.629467,1.666644,1.550690,0.728079,0.410807,-0.559212,-1.286558,-3.168798,-3.133916
A,13.863051,9.765250,11.550056,7.667509,3.755557,3.601574,1.655367,1.677800,0.575041,1.492793,-0.609546,-1.319723,-1.196487,-3.157329,-5.082965
A,11.925032,11.529632,9.618812,5.718050,3.765537,2.629467,1.666644,1.550690,0.728079,0.410807,-0.559212,-1.286558,-3.168798,-3.133916,-7.032814
A,9.765250,11.550056,7.667509,3.755557,3.601574,1.655367,1.677800,0.575041,1.492793,-0.609546,-1.319723,-1.196487,-3.157329,-5.082965,-8.067054
A,11.529632,9.618812,5.718050,3.765537,2.629467,1.666644,1.550690,0.728079,0.410807,-0.559212,-1.286558,-3.168798,-3.133916,-7.032814,-7.030293
A,11.550056,7.667509,3.755557,3.601574,1.655367,1.677800,0.575041,1.492793,-0.609546,-1.319723,-1.196487,-3.157329,-5.082965,-8.067054,-8.026767
A,9.618812,5.718050,3.765537,2.629467,1.666644,1.550690,0.728079,0.410807,-0.559212,-1.286558,-3.168798,-3.133916,-7.032814,-7.030293,-11.025805
A,7.667509,3.755557,3.601574,1.655367,1.677800,0.575041,1.492793,-0.609546,-1.319723,-1.196487,-3.157329,-5.082965,-8.067054,-8.026767,-11.994758
A,5.718050,3.765537,2.629467,1.666644,1.550690,0.728079,0.410807,-0.559212,-1.286558,-3.168798,-3.133916,-7.032814,-7.030293,-11.025805,-8.995890
A,3.755557,3.601574,1.655367,1.677800,0.575041,1.492793,-0.609546,-1.319723,-1.196487,-3.157329,-5.082965,-8.067054,-8.026767,-11.994758,-5.997132
A,3.765537,2.629467,1.666644,1.550690,0.728079,0.410807,-0.559212,-1.286558,-3.168798,-3.133916,-7.032814,-7.030293,-11.025805,-8.995890,-6.026284
A,6.841648,7.832109,10.789251,5.711118,3.760298,1.800707,3.470409,2.400044,1.375351,-0.826807,-1.309211,-2.134118,-2.035712,-4.030960,-5.027172
A,5.869001,9.798120,8.648805,4.740801,2.784421,2.794234,3.346598,2.568060,0.108521,-1.611691,-2.203873,-2.076653,-3.031314,-4.997549,-5.027514
A,7.832109,10.789251,5.711118,3.760298,1.800707,3.470409,2.400044,1.375351,-0.826807,-1.309211,-2.134118,-2.035712,-4.030960,-5.027172,-5.023773
A,9.798120,8.648805,4.740801,2.784421,2.794234,3.346598,2.568060,0.108521,-1.611691,-2.203873,-2.076653,-3.031314,-4.997549,-5.027514,-5.024084
A,10.789251,5.711118,3.760298,1.800707,3.470409,2.400044,1.375351,-0.826807,-1.309211,-2.134118,-2.035712,-4.030960,-5.027172,-5.023773,-5.998316
A,8.648805,4.740801,2.784421,2.794234,3.346598,2.568060,0.108521,-1.611691,-2.203873,-2.076653,-3.031314,-4.997549,-5.027514,-5.024084,-4.998563
A,13.659271,11.743628,5.882377,4.906811,3.743847,2.598748,3.612940,2.362555,1.331135,0.093727,-1.287767,-3.219440,-6.082162,-5.068887,-9.026147
A,14.654754,8.815906,4.904224,4.722294,3.754196,2.613381,3.475378,1.548696,1.031051,-0.610841,-2.252770,-4.144746,-6.075096,-5.031223,-14.024223
A,11.743628,5.882377,4.906811,3.743847,2.598748,3.612940,2.362555,1.331135,0.093727,-1.287767,-3.219440,-6.082162,-5.068887,-9.026147,-15.021605
A,8.815906,4.904224,4.722294,3.754196,2.613381,3.475378,1.548696,1.031051,-0.610841,-2.252770,-4.144746,-6.075096,-5.031223,-14.024223,-11.023558
A,5.882377,4.906811,3.743847,2.598748,3.612940,2.362555,1.331135,0.093727,-1.287767,-3.219440,-6.082162,-5.068887,-9.026147,-15.021605,-8.021317
A,4.904224,4.722294,3.754196,2.613381,3.475378,1.548696,1.031051,-0.610841,-2.252770,-4.144746,-6.075096,-5.031223,-14.024223,-11.023558,-8.021620
A,4.906811,3.743847,2.598748,3.612940,2.362555,1.331135,0.093727,-1.287767,-3.219440,-6.082162,-5.068887,-9.026147,-15.021605,-8.021317,-8.017638
A,6.816392,13.881579,9.782212,10.592875,6.698564,3.595588,3.472905,1.686005,1.452548,0.533895,-0.561581,-2.348070,-4.202837,-7.074444,-6.061044
A,11.700011,10.962187,10.574952,9.636989,4.745282,3.452270,2.662564,1.562495,0.614415,0.355540,-1.483203,-2.237232,-6.131550,-6.068084,-8.026553
A,13.881579,9.782212,10.592875,6.698564,3.595588,3.472905,1.686005,1.452548,0.533895,-0.561581,-2.348070,-4.202837,-7.074444,-6.061044,-12.022138
A,10.962187,10.574952,9.636989,4.745282,3.452270,2.662564,1.562495,0.614415,0.355540,-1.483203,-2.237232,-6.131550,-6.068084,-8.026553,-15.021525
A,9.782212,10.592875,6.698564,3.595588,3.472905,1.686005,1.452548,0.533895,-0.561581,-2.348070,-4.202837,-7.074444,-6.061044,-12.022138,-14.019243
A,10.574952,9.636989,4.745282,3.452270,2.662564,1.562495,0.614415,0.355540,-1.483203,-2.237232,-6.131550,-6.068084,-8.026553,-15.021525,-11.020527
A,10.592875,6.698564,3.595588,3.472905,1.686005,1.452548,0.533895,-0.561581,-2.348070,-4.202837,-7.074444,-6.061044,-12.022138,-14.019243,-7.017600
A,9.636989,4.745282,3.452270,2.662564,1.562495,0.614415,0.355540,-1.483203,-2.237232,-6.131550,-6.068084,-8.026553,-15.021525,-11.020527,-6.018100
A,5.816550,7.546427,7.803130,17.613092,14.544416,7.375267,6.056728,2.495645,0.583971,-0.487612,-3.285817,-5.154031,-8.051267,-9.019138,-7.998462
A,5.824908,8.536759,11.725847,18.628448,8.667730,7.082155,4.147569,1.646582,-0.563969,-1.409456,-4.223631,-6.059241,-9.022388,-9.019465,-6.998607
A,7.546427,7.803130,17.613092,14.544416,7.375267,6.056728,2.495645,0.583971,-0.487612,-3.285817,-5.154031,-8.051267,-9.019138,-7.998462,-6.998549
A,8.536759,11.725847,18.628448,8.667730,7.082155,4.147569,1.646582,-0.563969,-1.409456,-4.223631,-6.059241,-9.022388,-9.019465,-6.998607,-8.016797
A,8.805860,12.748524,7.859962,4.740801,3.605161,2.647150,2.533028,1.350419,0.128408,-1.272215,-3.203793,-4.109374,-5.052052,-10.018719,-8.015816
A,11.752560,10.797223,6.881343,4.575153,2.634795,2.660964,2.421355,0.200827,-0.583731,-2.237232,-4.170553,-4.060223,-7.022840,-9.019218,-9.015918
A,12.748524,7.859962,4.740801,3.605161,2.647150,2.533028,1.350419,0.128408,-1.272215,-3.203793,-4.109374,-5.052052,-10.018719,-8.015816,-7.999082
A,8.533895,11.724648,11.757179,13.571191,6.723120,4.612311,3.514484,3.214187,0.318119,-1.352863,-1.160960,-1.086106,-2.035862,-2.032063,-4.027430
A,10.728951,10.759473,14.527171,10.651456,5.752438,3.641460,4.393881,1.189029,-0.515288,-1.256499,-1.148223,-2.076981,-2.031927,-3.027678,-4.023633
A,11.724648,11.757179,13.571191,6.723120,4.612311,3.514484,3.214187,0.318119,-1.352863,-1.160960,-1.086106,-2.035862,-2.032063,-4.027430,-4.023837
A,3.935474,3.937819,4.593681,3.639667,2.820474,1.702590,0.609352,0.545327,0.453821,-0.275198,-1.160273,-1.085737,-2.068589,-3.027445,-3.023687
A,3.936663,4.754495,3.624459,2.665050,2.827539,1.713607,0.510328,0.489894,-0.397422,-1.185558,-1.148223,-1.077593,-2.060414,-3.023485,-4.019436
A,3.937819,4.593681,3.639667,2.820474,1.702590,0.609352,0.545327,0.453821,-0.275198,-1.160273,-1.085737,-2.068589,-3.027445,-3.023687,-5.019436
A,4.754495,3.624459,2.665050,2.827539,1.713607,0.510328,0.489894,-0.397422,-1.185558,-1.148223,-1.077593,-2.060414,-3.023485,-4.019436,-5.015431
A,9.666009,5.750952,2.803931,2.666658,0.710377,1.721979,0.750419,0.769516,0.511598,-0.309404,-1.289313,-2.122061,-2.060414,-3.023485,-6.019103
A,6.723120,3.782362,2.654411,1.690022,0.720804,0.740225,1.753159,0.678700,-0.440070,-1.273375,-1.247834,-2.068589,-3.051882,-4.019352,-10.014871
A,5.750952,2.803931,2.666658,0.710377,1.721979,0.750419,0.769516,0.511598,-0.309404,-1.289313,-2.122061,-2.060414,-3.023485,-6.019103,-14.014637
A,3.782362,2.654411,1.690022,0.720804,0.740225,1.753159,0.678700,-0.440070,-1.273375,-1.247834,-2.068589,-3.051882,-4.019352,-10.014871,-14.011174
A,4.888213,5.895558,5.906415,4.918550,2.930551,3.882850,2.867403,1.935954,0.919297,0.109348,-0.838213,-0.830132,-1.859953,-7.900539,-6.891785
A,4.890238,6.894347,4.911097,3.858759,2.936732,3.894079,1.883178,1.909755,0.015623,-0.854171,-0.801236,-0.871840,-4.840516,-8.886814,-5.976774
A,5.895558,5.906415,4.918550,2.930551,3.882850,2.867403,1.935954,0.919297,0.109348,-0.838213,-0.830132,-1.859953,-7.900539,-6.891785,-5.976315
A,6.894347,4.911097,3.858759,2.936732,3.894079,1.883178,1.909755,0.015623,-0.854171,-0.801236,-0.871840,-4.840516,-8.886814,-5.976774,-5.068497
A,5.901855,5.912459,3.926026,2.880681,1.948077,2.952806,2.924425,1.944710,1.952415,0.999960,0.133883,-1.701808,-3.779164,-5.812127,-9.958116
A,6.907939,4.922814,3.932791,1.942608,1.948332,2.913898,2.934388,1.954230,0.966209,1.053555,-0.784661,-2.690085,-2.835787,-9.875113,-7.965174
A,5.912459,3.926026,2.880681,1.948077,2.952806,2.924425,1.944710,1.952415,0.999960,0.133883,-1.701808,-3.779164,-5.812127,-9.958116,-5.070971
A,4.922814,3.932791,1.942608,1.948332,2.913898,2.934388,1.954230,0.966209,1.053555,-0.784661,-2.690085,-2.835787,-9.875113,-7.965174,-4.075970
A,3.926026,2.880681,1.948077,2.952806,2.924425,1.944710,1.952415,0.999960,0.133883,-1.701808,-3.779164,-5.812127,-9.958116,-5.070971,-3.077205
A,3.932791,1.942608,1.948332,2.913898,2.934388,1.954230,0.966209,1.053555,-0.784661,-2.690085,-2.835787,-9.875113,-7.965174,-4.075970,-3.077872
A,2.880681,1.948077,2.952806,2.924425,1.944710,1.952415,0.999960,0.133883,-1.701808,-3.779164,-5.812127,-9.958116,-5.070971,-3.077205,-3.984411
A,1.942608,1.948332,2.913898,2.934388,1.954230,0.966209,1.053555,-0.784661,-2.690085,-2.835787,-9.875113,-7.965174,-4.075970,-3.077872,-4.979998
A,4.921498,4.930036,2.940669,2.902633,1.924227,2.923131,0.972564,0.990909,1.020269,-0.909437,-0.783802,-0.879997,-1.857970,-1.918016,-3.817323
A,5.927164,2.940055,2.946445,2.913068,1.908810,1.962951,1.981715,1.006746,0.047290,-0.830171,-0.842372,-1.868311,-1.847497,-1.912274,-6.885523
A,4.930036,2.940669,2.902633,1.924227,2.923131,0.972564,0.990909,1.020269,-0.909437,-0.783802,-0.879997,-1.857970,-1.918016,-3.817323,-7.966499
A,6.919950,6.930401,4.942122,3.950451,1.958326,1.963742,2.968630,3.919699,2.107096,-0.670319,-1.707210,-3.718059,-4.875309,-6.961344,-8.060981
A,5.924152,5.933429,3.944188,2.951854,1.958529,1.963916,3.922965,2.983818,1.249748,-1.694097,-2.753174,-4.794751,-5.867680,-8.060748,-9.055212
A,6.930401,4.942122,3.950451,1.958326,1.963742,2.968630,3.919699,2.107096,-0.670319,-1.707210,-3.718059,-4.875309,-6.961344,-8.060981,-10.049650
A,5.933429,3.944188,2.951854,1.958529,1.963916,3.922965,2.983818,1.249748,-1.694097,-2.753174,-4.794751,-5.867680,-8.060748,-9.055212,-10.049760
A,3.928628,2.937803,3.943292,3.950193,2.957413,2.963214,2.943674,2.951939,2.011080,0.249838,-0.696672,-0.761675,-2.807034,-3.881895,-7.956851
A,3.935626,2.944181,3.949670,3.956269,2.963034,2.968630,2.937808,1.979639,1.109348,0.327725,-0.790030,-1.743911,-3.889371,-4.875309,-8.949815
A,2.937803,3.943292,3.950193,2.957413,2.963214,2.943674,2.951939,2.011080,0.249838,-0.696672,-0.761675,-2.807034,-3.881895,-7.956851,-10.049672
A,2.944181,3.949670,3.956269,2.963034,2.968630,2.937808,1.979639,1.109348,0.327725,-0.790030,-1.743911,-3.889371,-4.875309,-8.949815,-9.055350
A,3.943292,3.950193,2.957413,2.963214,2.943674,2.951939,2.011080,0.249838,-0.696672,-0.761675,-2.807034,-3.881895,-7.956851,-10.049672,-10.049650
A,3.949670,3.956269,2.963034,2.968630,2.937808,1.979639,1.109348,0.327725,-0.790030,-1.743911,-3.889371,-4.875309,-8.949815,-9.055350,-14.025585
A,3.950193,2.957413,2.963214,2.943674,2.951939,2.011080,0.249838,-0.696672,-0.761675,-2.807034,-3.881895,-7.956851,-10.049672,-10.049650,-14.026253
A,6.916961,4.930418,1.942321,2.946982,2.953038,2.924780,2.924536,0.973057,1.011071,0.122178,-0.919074,-0.844501,-0.872423,-1.850339,-1.913984
A,5.920838,2.934767,2.941271,2.947509,2.914712,1.910484,1.963625,1.982044,0.077764,-0.899255,-0.858094,-0.881633,-0.862575,-1.839948,-1.908272
A,4.930418,1.942321,2.946982,2.953038,2.924780,2.924536,0.973057,1.011071,0.122178,-0.919074,-0.844501,-0.872423,-1.850339,-1.913984,-1.907819
A,2.934767,2.941271,2.947509,2.914712,1.910484,1.963625,1.982044,0.077764,-0.899255,-0.858094,-0.881633,-0.862575,-1.839948,-1.908272,-3.984470
A,4.930418,3.939634,1.948584,2.953268,1.925635,1.924698,0.972935,0.991032,1.055549,0.124379,-1.801326,-2.797552,-2.835787,-3.899525,-2.895508
A,3.933146,2.941567,1.948834,2.914712,1.935363,1.938745,0.982054,1.006657,0.099974,-0.838936,-1.763747,-2.847353,-3.820924,-3.892154,-2.986422
A,3.939634,1.948584,2.953268,1.925635,1.924698,0.972935,0.991032,1.055549,0.124379,-1.801326,-2.797552,-2.835787,-3.899525,-2.895508,-2.986292
A,2.941567,1.948834,2.914712,1.935363,1.938745,0.982054,1.006657,0.099974,-0.838936,-1.763747,-2.847353,-3.820924,-3.892154,-2.986422,-2.084968
A,5.909061,3.860161,2.937361,1.944803,1.907529,0.927481,0.945958,0.946426,1.017688,0.059721,-0.899704,-0.910001,-0.891324,-1.870138,-2.922097
A,4.919434,2.931252,2.937671,1.897608,1.917323,0.936891,0.939656,0.982213,0.053091,-0.913126,-0.919074,-0.900467,-0.881633,-1.930233,-3.918989
A,3.860161,2.937361,1.944803,1.907529,0.927481,0.945958,0.946426,1.017688,0.059721,-0.899704,-0.910001,-0.891324,-1.870138,-2.922097,-8.974822
A,2.931252,2.937671,1.897608,1.917323,0.936891,0.939656,0.982213,0.053091,-0.913126,-0.919074,-0.900467,-0.881633,-1.930233,-3.918989,-12.962216
A,2.980597,2.872690,3.876446,3.886031,5.887776,3.904665,3.842052,2.810990,1.856643,1.927650,0.911442,0.000000,-1.910960,-1.837727,-3.885630
A,2.871951,2.880710,2.889097,5.885797,4.899933,3.911735,3.792961,2.841080,0.919074,0.937455,0.920368,-0.944697,-1.874572,-2.855179,-3.874408
A,2.872690,3.876446,3.886031,5.887776,3.904665,3.842052,2.810990,1.856643,1.927650,0.911442,0.000000,-1.910960,-1.837727,-3.885630,-7.921561
A,2.880710,2.889097,5.885797,4.899933,3.911735,3.792961,2.841080,0.919074,0.937455,0.920368,-0.944697,-1.874572,-2.855179,-3.874408,-11.973651
A,3.876446,3.886031,5.887776,3.904665,3.842052,2.810990,1.856643,1.927650,0.911442,0.000000,-1.910960,-1.837727,-3.885630,-7.921561,-12.969612
A,2.889097,5.885797,4.899933,3.911735,3.792961,2.841080,0.919074,0.937455,0.920368,-0.944697,-1.874572,-2.855179,-3.874408,-11.973651,-9.975574
A,3.886031,5.887776,3.904665,3.842052,2.810990,1.856643,1.927650,0.911442,0.000000,-1.910960,-1.837727,-3.885630,-7.921561,-12.969612,-6.981931
A,5.885797,4.899933,3.911735,3.792961,2.841080,0.919074,0.937455,0.920368,-0.944697,-1.874572,-2.855179,-3.874408,-11.973651,-9.975574,-5.984109
A,5.887776,3.904665,3.842052,2.810990,1.856643,1.927650,0.911442,0.000000,-1.910960,-1.837727,-3.885630,-7.921561,-12.969612,-6.981931,-6.056207
A,4.899933,3.911735,3.792961,2.841080,0.919074,0.937455,0.920368,-0.944697,-1.874572,-2.855179,-3.874408,-11.973651,-9.975574,-5.984109,-9.048975
A,3.904665,3.842052,2.810990,1.856643,1.927650,0.911442,0.000000,-1.910960,-1.837727,-3.885630,-7.921561,-12.969612,-6.981931,-6.056207,-10.045248
A,8.817056,12.818133,8.861732,3.895659,3.904155,2.914891,2.921709,2.867832,2.800530,0.928771,0.894289,-0.922912,-3.808146,-2.887379,-4.928424
A,11.815248,10.846281,6.881381,3.903118,2.914015,2.920919,2.927549,2.826932,1.871622,1.893536,-0.015349,-2.839808,-3.797905,-1.934990,-8.980883
A,12.818133,8.861732,3.895659,3.904155,2.914891,2.921709,2.867832,2.800530,0.928771,0.894289,-0.922912,-3.808146,-2.887379,-4.928424,-9.977839
A,10.846281,6.881381,3.903118,2.914015,2.920919,2.927549,2.826932,1.871622,1.893536,-0.015349,-2.839808,-3.797905,-1.934990,-8.980883,-7.981582
A,8.861732,3.895659,3.904155,2.914891,2.921709,2.867832,2.800530,0.928771,0.894289,-0.922912,-3.808146,-2.887379,-4.928424,-9.977839,-5.985638
A,6.881381,3.903118,2.914015,2.920919,2.927549,2.826932,1.871622,1.893536,-0.015349,-2.839808,-3.797905,-1.934990,-8.980883,-7.981582,-5.985203
A,3.895659,3.904155,2.914891,2.921709,2.867832,2.800530,0.928771,0.894289,-0.922912,-3.808146,-2.887379,-4.928424,-9.977839,-5.985638,-5.984749
A,3.903118,2.914015,2.920919,2.927549,2.826932,1.871622,1.893536,-0.015349,-2.839808,-3.797905,-1.934990,-8.980883,-7.981582,-5.985203,-5.984272
A,3.904155,2.914891,2.921709,2.867832,2.800530,0.928771,0.894289,-0.922912,-3.808146,-2.887379,-4.928424,-9.977839,-5.985638,-5.984749,-5.058174
A,5.839257,6.847643,3.876649,3.885780,2.898186,1.829425,1.919989,1.801085,1.844216,0.833929,-0.055059,-0.964605,-1.926047,-2.926166,-5.950749
A,5.850543,5.863736,3.884532,2.897131,2.904443,1.914401,1.851033,1.815858,0.821776,0.878274,-1.010974,-0.953301,-1.912097,-2.959438,-9.946054
A,6.847643,3.876649,3.885780,2.898186,1.829425,1.919989,1.801085,1.844216,0.833929,-0.055059,-0.964605,-1.926047,-2.926166,-5.950749,-10.987481
A,5.863736,3.884532,2.897131,2.904443,1.914401,1.851033,1.815858,0.821776,0.878274,-1.010974,-0.953301,-1.912097,-2.959438,-9.946054,-9.988116
A,3.876649,3.885780,2.898186,1.829425,1.919989,1.801085,1.844216,0.833929,-0.055059,-0.964605,-1.926047,-2.926166,-5.950749,-10.987481,-6.991307
A,3.884532,2.897131,2.904443,1.914401,1.851033,1.815858,0.821776,0.878274,-1.010974,-0.953301,-1.912097,-2.959438,-9.946054,-9.988116,-4.993602
A,3.885780,2.898186,1.829425,1.919989,1.801085,1.844216,0.833929,-0.055059,-0.964605,-1.926047,-2.926166,-5.950749,-10.987481,-6.991307,-4.993403
A,2.897131,2.904443,1.914401,1.851033,1.815858,0.821776,0.878274,-1.010974,-0.953301,-1.912097,-2.959438,-9.946054,-9.988116,-4.993602,-4.993266
A,2.898186,1.829425,1.919989,1.801085,1.844216,0.833929,-0.055059,-0.964605,-1.926047,-2.926166,-5.950749,-10.987481,-6.991307,-4.993403,-4.993052
A,4.870784,5.877578,4.892627,2.908267,1.918016,2.855942,2.877632,0.900467,0.885759,0.899987,0.011061,-0.939925,-0.937174,-1.917701,-2.949029
A,4.873075,5.879725,2.901438,2.908738,1.847497,2.866577,1.889113,1.871042,0.893218,-0.033183,-0.946664,-0.946200,-0.927808,-1.907954,-3.942042
A,5.877578,4.892627,2.908267,1.918016,2.855942,2.877632,0.900467,0.885759,0.899987,0.011061,-0.939925,-0.937174,-1.917701,-2.949029,-2.943005
A,5.879725,2.901438,2.908738,1.847497,2.866577,1.889113,1.871042,0.893218,-0.033183,-0.946664,-0.946200,-0.927808,-1.907954,-3.942042,-3.935199
A,4.892627,2.908267,1.918016,2.855942,2.877632,0.900467,0.885759,0.899987,0.011061,-0.939925,-0.937174,-1.917701,-2.949029,-2.943005,-5.931080
A,2.901438,2.908738,1.847497,2.866577,1.889113,1.871042,0.893218,-0.033183,-0.946664,-0.946200,-0.927808,-1.907954,-3.942042,-3.935199,-6.986558
A,2.908267,1.918016,2.855942,2.877632,0.900467,0.885759,0.899987,0.011061,-0.939925,-0.937174,-1.917701,-2.949029,-2.943005,-5.931080,-6.986166
A,2.908738,1.847497,2.866577,1.889113,1.871042,0.893218,-0.033183,-0.946664,-0.946200,-0.927808,-1.907954,-3.942042,-3.935199,-6.986558,-7.048306
A,4.084187,4.867603,4.878971,4.889538,5.896192,5.708179,2.796852,1.897985,0.919657,0.055549,-0.874818,-2.855179,-2.938281,-8.918896,-10.974042
A,3.976527,4.870003,4.881093,4.891412,5.750190,4.753379,1.869865,1.876547,0.000000,-0.910651,-0.885246,-2.897073,-5.869575,-11.972888,-12.040350
A,4.867603,4.878971,4.889538,5.896192,5.708179,2.796852,1.897985,0.919657,0.055549,-0.874818,-2.855179,-2.938281,-8.918896,-10.974042,-15.033165
A,4.870003,4.881093,4.891412,5.750190,4.753379,1.869865,1.876547,0.000000,-0.910651,-0.885246,-2.897073,-5.869575,-11.972888,-12.040350,-15.033272
A,3.900977,3.909361,2.919704,1.928523,1.934361,1.940047,1.898551,0.885246,0.892874,0.053326,-0.832446,-1.842798,-4.929161,-5.987199,-6.984117
A,3.902059,2.913122,2.920113,1.928872,1.934677,1.888599,1.870456,0.892741,-0.015554,-0.877187,-0.871676,-3.885630,-5.925908,-5.986708,-7.981035
A,3.909361,2.919704,1.928523,1.934361,1.940047,1.898551,0.885246,0.892874,0.053326,-0.832446,-1.842798,-4.929161,-5.987199,-6.984117,-8.977910
A,2.913122,2.920113,1.928872,1.934677,1.888599,1.870456,0.892741,-0.015554,-0.877187,-0.871676,-3.885630,-5.925908,-5.986708,-7.981035,-8.049957
A,3.901521,2.912668,2.919704,1.928523,2.932612,1.888599,0.909185,0.927808,0.946200,0.944451,0.035395,-0.926533,-0.885759,-2.897551,-1.940047
A,2.911747,2.918874,2.925712,2.932277,1.940047,1.898551,0.918709,0.937174,0.939925,-0.011061,-0.928864,-0.937174,-0.871676,-2.887379,-1.934677
A,2.912668,2.919704,1.928523,2.932612,1.888599,0.909185,0.927808,0.946200,0.944451,0.035395,-0.926533,-0.885759,-2.897551,-1.940047,-1.934361
A,2.918874,2.925712,2.932277,1.940047,1.898551,0.918709,0.937174,0.939925,-0.011061,-0.928864,-0.937174,-0.871676,-2.887379,-1.934677,-3.924022